logs/mem_rw_tb.vcd
$date
   Sat May  2 19:07:09 2026
$end
$version
  2022.2
$end
$timescale
  1ps
$end
$scope module mem_rw_tb $end
$var reg 1 ! aclk $end
$var reg 1 " aresetn $end
$var reg 32 # awaddr [31:0] $end
$var reg 1 $ awvalid $end
$var wire 1 % awready $end
$var reg 32 & wdata [31:0] $end
$var reg 4 ' wstrb [3:0] $end
$var reg 1 ( wlast $end
$var reg 1 ) wvalid $end
$var wire 1 * wready $end
$var wire 2 + bresp [1:0] $end
$var wire 1 , bvalid $end
$var reg 1 - bready $end
$var reg 32 . araddr [31:0] $end
$var reg 1 / arvalid $end
$var wire 1 0 arready $end
$var wire 32 1 rdata [31:0] $end
$var wire 2 2 rresp [1:0] $end
$var wire 1 3 rlast $end
$var wire 1 4 rvalid $end
$var reg 1 5 rready $end
$var reg 32 6 pass_count [31:0] $end
$var reg 32 7 fail_count [31:0] $end
$var reg 2 8 last_bresp [1:0] $end
$var reg 2 9 last_rresp [1:0] $end
$var reg 32 : rd [31:0] $end
$scope module dut $end
$var wire 1 ; aclk $end
$var wire 1 < aresetn $end
$var wire 32 = awaddr [31:0] $end
$var wire 1 > awvalid $end
$var reg 1 ? awready $end
$var wire 32 @ wdata [31:0] $end
$var wire 4 A wstrb [3:0] $end
$var wire 1 B wlast $end
$var wire 1 C wvalid $end
$var reg 1 D wready $end
$var reg 2 E bresp [1:0] $end
$var reg 1 F bvalid $end
$var wire 1 G bready $end
$var wire 32 H araddr [31:0] $end
$var wire 1 I arvalid $end
$var reg 1 J arready $end
$var reg 32 K rdata [31:0] $end
$var reg 2 L rresp [1:0] $end
$var reg 1 M rlast $end
$var reg 1 N rvalid $end
$var wire 1 O rready $end
$var integer 32 P init_i [31:0] $end
$var reg 2 Q wstate [1:0] $end
$var reg 32 R aw_latch [31:0] $end
$var reg 32 S wd_latch [31:0] $end
$var reg 4 T ws_latch [3:0] $end
$var integer 32 U i [31:0] $end
$var reg 1 V rstate $end
$scope function addr_in_range $end
$var reg 1 W addr_in_range $end
$var reg 32 X a [31:0] $end
$upscope $end
$scope task do_write $end
$var reg 32 Y a [31:0] $end
$var reg 32 Z d [31:0] $end
$var reg 4 [ s [3:0] $end
$var integer 32 \ idx [31:0] $end
$upscope $end
$upscope $end
$scope begin Block178_5 $end
$var reg 32 ] i [31:0] $end
$upscope $end
$scope begin Block183_6 $end
$var reg 32 ^ i [31:0] $end
$upscope $end
$scope task axi_write32 $end
$var reg 32 _ addr [31:0] $end
$var reg 32 ` data [31:0] $end
$var reg 4 a strb [3:0] $end
$var reg 32 b timeout [31:0] $end
$upscope $end
$scope task axi_read32 $end
$var reg 32 _ addr [31:0] $end
$var reg 32 ` rd [31:0] $end
$var reg 32 c timeout [31:0] $end
$upscope $end
$scope task check_eq $end
$var reg 32 _ got [31:0] $end
$var reg 32 ` exp [31:0] $end
$var reg 32 c label $end
$upscope $end
$scope task check_resp $end
$var reg 2 d got [1:0] $end
$var reg 2 e exp [1:0] $end
$var reg 32 c label $end
$upscope $end
$upscope $end
$enddefinitions $end
#0
$dumpvars
0!
0"
b0 #
0$
1%
b0 &
b0 '
0(
0)
1*
b0 +
0,
0-
b0 .
0/
10
b0 1
b0 2
03
04
05
b0 6
b0 7
bx 8
bx 9
bx :
0;
0<
b0 =
0>
1?
b0 @
b0 A
0B
0C
1D
b0 E
0F
0G
b0 H
0I
1J
b0 K
b0 L
0M
0N
0O
b10000000000 P
b0 Q
bx R
bx S
bx T
bx U
0V
0W
b0 X
bx Y
bx Z
bx [
bx \
b0 ]
b0 ^
b0 _
b0 `
b0 a
b0 b
b0 c
b0 d
b0 e
$end
#5000
1!
1;
#10000
0!
0;
#15000
1!
1;
#20000
0!
0;
#25000
1!
1;
#30000
0!
0;
#35000
1!
1;
#40000
0!
0;
#45000
1!
1;
#50000
0!
0;
#55000
1!
1;
#60000
0!
0;
#65000
1!
1;
#70000
0!
0;
#75000
1!
1"
1;
1<
#80000
0!
0;
#85000
1!
1;
#90000
0!
0;
#95000
1!
1;
#100000
0!
b0 #
1$
b11011110101011011011111011101111 &
b1111 '
1(
1)
0;
1>
b11011110101011011011111011101111 @
b1111 A
1B
1C
#105000
1!
0%
0*
1,
1;
0?
0D
1F
b11 Q
b0 Y
b11011110101011011011111011101111 Z
b1111 [
b0 \
#110000
0!
0$
0)
1-
0;
0>
0C
1G
#115000
1!
1%
1*
0,
b0 8
1;
1?
1D
0F
b0 Q
#120000
0!
0-
b1 6
0;
0G
#125000
1!
1;
#130000
0!
b0 .
1/
0;
1I
#135000
1!
00
b11011110101011011011111011101111 1
13
14
1;
0J
b11011110101011011011111011101111 K
1M
1N
1V
#140000
0!
0/
15
0;
0I
1O
#145000
1!
10
03
04
b0 9
1;
1J
0M
0N
0V
#150000
0!
05
b11 6
b11011110101011011011111011101111 :
0;
0O
#155000
1!
1;
#160000
0!
b10000 #
1$
b11001010111111101111000000001101 &
b1111 '
1)
0;
b10000 =
1>
b11001010111111101111000000001101 @
1C
#165000
1!
0%
0*
1,
1;
0?
0D
1F
b11 Q
b10000 Y
b11001010111111101111000000001101 Z
b100 \
#170000
0!
0$
0)
1-
0;
0>
0C
1G
#175000
1!
1%
1*
0,
1;
1?
1D
0F
b0 Q
#180000
0!
0-
b100 6
0;
0G
#185000
1!
1;
#190000
0!
b10000 .
1/
0;
b10000 H
1I
#195000
1!
00
b11001010111111101111000000001101 1
13
14
1;
0J
b11001010111111101111000000001101 K
1M
1N
1V
#200000
0!
0/
15
0;
0I
1O
#205000
1!
10
03
04
1;
1J
0M
0N
0V
#210000
0!
05
b110 6
b11001010111111101111000000001101 :
0;
0O
#215000
1!
1;
#220000
0!
b0 #
1$
b10100000101100001100000000000000 &
b1111 '
1)
0;
b0 =
1>
b10100000101100001100000000000000 @
1C
#225000
1!
0%
0*
1,
1;
0?
0D
1F
b11 Q
b0 Y
b10100000101100001100000000000000 Z
b0 \
#230000
0!
0$
0)
1-
0;
0>
0C
1G
#235000
1!
1%
1*
0,
1;
1?
1D
0F
b0 Q
#240000
0!
0-
b111 6
0;
0G
b1 ]
#245000
1!
1;
#250000
0!
b100 #
1$
b10100000101100001100000000000001 &
b1111 '
1)
0;
b100 =
1>
b10100000101100001100000000000001 @
1C
#255000
1!
0%
0*
1,
1;
0?
0D
1F
b11 Q
b100 Y
b10100000101100001100000000000001 Z
b1 \
#260000
0!
0$
0)
1-
0;
0>
0C
1G
#265000
1!
1%
1*
0,
1;
1?
1D
0F
b0 Q
#270000
0!
0-
b1000 6
0;
0G
b10 ]
#275000
1!
1;
#280000
0!
b1000 #
1$
b10100000101100001100000000000010 &
b1111 '
1)
0;
b1000 =
1>
b10100000101100001100000000000010 @
1C
#285000
1!
0%
0*
1,
1;
0?
0D
1F
b11 Q
b1000 Y
b10100000101100001100000000000010 Z
b10 \
#290000
0!
0$
0)
1-
0;
0>
0C
1G
#295000
1!
1%
1*
0,
1;
1?
1D
0F
b0 Q
#300000
0!
0-
b1001 6
0;
0G
b11 ]
#305000
1!
1;
#310000
0!
b1100 #
1$
b10100000101100001100000000000011 &
b1111 '
1)
0;
b1100 =
1>
b10100000101100001100000000000011 @
1C
#315000
1!
0%
0*
1,
1;
0?
0D
1F
b11 Q
b1100 Y
b10100000101100001100000000000011 Z
b11 \
#320000
0!
0$
0)
1-
0;
0>
0C
1G
#325000
1!
1%
1*
0,
1;
1?
1D
0F
b0 Q
#330000
0!
0-
b1010 6
0;
0G
b100 ]
#335000
1!
1;
#340000
0!
b0 .
1/
0;
b0 H
1I
#345000
1!
00
b10100000101100001100000000000000 1
13
14
1;
0J
b10100000101100001100000000000000 K
1M
1N
1V
#350000
0!
0/
15
0;
0I
1O
#355000
1!
10
03
04
1;
1J
0M
0N
0V
#360000
0!
05
b1100 6
b10100000101100001100000000000000 :
0;
0O
b1 ^
#365000
1!
1;
#370000
0!
b100 .
1/
0;
b100 H
1I
#375000
1!
00
b10100000101100001100000000000001 1
13
14
1;
0J
b10100000101100001100000000000001 K
1M
1N
1V
#380000
0!
0/
15
0;
0I
1O
#385000
1!
10
03
04
1;
1J
0M
0N
0V
#390000
0!
05
b1110 6
b10100000101100001100000000000001 :
0;
0O
b10 ^
#395000
1!
1;
#400000
0!
b1000 .
1/
0;
b1000 H
1I
#405000
1!
00
b10100000101100001100000000000010 1
13
14
1;
0J
b10100000101100001100000000000010 K
1M
1N
1V
#410000
0!
0/
15
0;
0I
1O
#415000
1!
10
03
04
1;
1J
0M
0N
0V
#420000
0!
05
b10000 6
b10100000101100001100000000000010 :
0;
0O
b11 ^
#425000
1!
1;
#430000
0!
b1100 .
1/
0;
b1100 H
1I
#435000
1!
00
b10100000101100001100000000000011 1
13
14
1;
0J
b10100000101100001100000000000011 K
1M
1N
1V
#440000
0!
0/
15
0;
0I
1O
#445000
1!
10
03
04
1;
1J
0M
0N
0V
#450000
0!
05
b10010 6
b10100000101100001100000000000011 :
0;
0O
b100 ^
#455000
1!
1;
#460000
0!
b0 #
1$
b11111111111111111111111111111111 &
b1111 '
1)
0;
b0 =
1>
b11111111111111111111111111111111 @
1C
#465000
1!
0%
0*
1,
1;
0?
0D
1F
b11 Q
b0 Y
b11111111111111111111111111111111 Z
b0 \
#470000
0!
0$
0)
1-
0;
0>
0C
1G
#475000
1!
1%
1*
0,
1;
1?
1D
0F
b0 Q
#480000
0!
0-
b10011 6
0;
0G
#485000
1!
1;
#490000
0!
b0 #
1$
b0 &
b1 '
1)
0;
1>
b0 @
b1 A
1C
#495000
1!
0%
0*
1,
1;
0?
0D
1F
b11 Q
b0 Z
b1 [
#500000
0!
0$
0)
1-
0;
0>
0C
1G
#505000
1!
1%
1*
0,
1;
1?
1D
0F
b0 Q
#510000
0!
0-
b10100 6
0;
0G
#515000
1!
1;
#520000
0!
b0 .
1/
0;
b0 H
1I
#525000
1!
00
b11111111111111111111111100000000 1
13
14
1;
0J
b11111111111111111111111100000000 K
1M
1N
1V
#530000
0!
0/
15
0;
0I
1O
#535000
1!
10
03
04
1;
1J
0M
0N
0V
#540000
0!
05
b10110 6
b11111111111111111111111100000000 :
0;
0O
#545000
1!
1;
#550000
0!
b0 #
1$
b10101011000000000000000000000000 &
b1000 '
1)
0;
1>
b10101011000000000000000000000000 @
b1000 A
1C
#555000
1!
0%
0*
1,
1;
0?
0D
1F
b11 Q
b10101011000000000000000000000000 Z
b1000 [
#560000
0!
0$
0)
1-
0;
0>
0C
1G
#565000
1!
1%
1*
0,
1;
1?
1D
0F
b0 Q
#570000
0!
0-
b10111 6
0;
0G
#575000
1!
1;
#580000
0!
b0 .
1/
0;
1I
#585000
1!
00
b10101011111111111111111100000000 1
13
14
1;
0J
b10101011111111111111111100000000 K
1M
1N
1V
#590000
0!
0/
15
0;
0I
1O
#595000
1!
10
03
04
1;
1J
0M
0N
0V
#600000
0!
05
b11001 6
b10101011111111111111111100000000 :
0;
0O
#605000
1!
1;
#610000
0!
b0 #
1$
b1101000001001000000000 &
b110 '
1)
0;
1>
b1101000001001000000000 @
b110 A
1C
#615000
1!
0%
0*
1,
1;
0?
0D
1F
b11 Q
b1101000001001000000000 Z
b110 [
#620000
0!
0$
0)
1-
0;
0>
0C
1G
#625000
1!
1%
1*
0,
1;
1?
1D
0F
b0 Q
#630000
0!
0-
b11010 6
0;
0G
#635000
1!
1;
#640000
0!
b0 .
1/
0;
1I
#645000
1!
00
b10101011001101000001001000000000 1
13
14
1;
0J
b10101011001101000001001000000000 K
1M
1N
1V
#650000
0!
0/
15
0;
0I
1O
#655000
1!
10
03
04
1;
1J
0M
0N
0V
#660000
0!
05
b11100 6
b10101011001101000001001000000000 :
0;
0O
#665000
1!
1;
#670000
0!
b100000000 .
1/
0;
b100000000 H
1I
#675000
1!
00
b0 1
13
14
1;
0J
b0 K
1M
1N
1V
#680000
0!
0/
15
0;
0I
1O
#685000
1!
10
03
04
1;
1J
0M
0N
0V
#690000
0!
05
b11110 6
b0 :
0;
