logs/simple_dma_add_ctrl_tb.vcd
$date
   Sun May  3 11:52:49 2026
$end
$version
  2022.2
$end
$timescale
  1ps
$end
$scope module simple_dma_add_ctrl_tb $end
$var reg 1 ! aclk $end
$var reg 1 " aresetn $end
$var reg 32 # s_awaddr [31:0] $end
$var reg 1 $ s_awvalid $end
$var reg 1 % s_awready $end
$var reg 32 & s_wdata [31:0] $end
$var reg 4 ' s_wstrb [3:0] $end
$var reg 1 ( s_wvalid $end
$var reg 1 ) s_wready $end
$var reg 2 * s_bresp [1:0] $end
$var reg 1 + s_bvalid $end
$var reg 1 , s_bready $end
$var reg 32 - s_araddr [31:0] $end
$var reg 1 . s_arvalid $end
$var reg 1 / s_arready $end
$var reg 32 0 s_rdata [31:0] $end
$var reg 2 1 s_rresp [1:0] $end
$var reg 1 2 s_rvalid $end
$var reg 1 3 s_rready $end
$var wire 32 4 m_araddr [31:0] $end
$var wire 1 5 m_arvalid $end
$var wire 1 6 m_arready $end
$var wire 32 7 m_rdata [31:0] $end
$var wire 2 8 m_rresp [1:0] $end
$var wire 1 9 m_rlast $end
$var wire 1 : m_rvalid $end
$var wire 1 ; m_rready $end
$var wire 32 < m_awaddr [31:0] $end
$var wire 1 = m_awvalid $end
$var wire 1 > m_awready $end
$var wire 32 ? m_wdata [31:0] $end
$var wire 4 @ m_wstrb_dut [3:0] $end
$var wire 1 A m_wlast $end
$var wire 1 B m_wvalid $end
$var wire 1 C m_wready $end
$var wire 2 D m_bresp [1:0] $end
$var wire 1 E m_bvalid $end
$var wire 1 F m_bready $end
$var reg 32 G pass_count [31:0] $end
$var reg 32 H fail_count [31:0] $end
$var reg 32 I rval [31:0] $end
$var reg 2 J resp [1:0] $end
$scope module dut $end
$var wire 1 K aclk $end
$var wire 1 L aresetn $end
$var wire 32 M s_awaddr [31:0] $end
$var wire 1 N s_awvalid $end
$var reg 1 % s_awready $end
$var wire 32 O s_wdata [31:0] $end
$var wire 4 P s_wstrb [3:0] $end
$var wire 1 Q s_wvalid $end
$var reg 1 ) s_wready $end
$var reg 2 * s_bresp [1:0] $end
$var reg 1 + s_bvalid $end
$var wire 1 R s_bready $end
$var wire 32 S s_araddr [31:0] $end
$var wire 1 T s_arvalid $end
$var reg 1 / s_arready $end
$var reg 32 0 s_rdata [31:0] $end
$var reg 2 1 s_rresp [1:0] $end
$var reg 1 2 s_rvalid $end
$var wire 1 U s_rready $end
$var wire 32 4 m_araddr [31:0] $end
$var wire 1 5 m_arvalid $end
$var wire 1 6 m_arready $end
$var wire 32 7 m_rdata [31:0] $end
$var wire 2 8 m_rresp [1:0] $end
$var wire 1 9 m_rlast $end
$var wire 1 : m_rvalid $end
$var wire 1 ; m_rready $end
$var wire 32 < m_awaddr [31:0] $end
$var wire 1 = m_awvalid $end
$var wire 1 > m_awready $end
$var wire 32 ? m_wdata [31:0] $end
$var wire 4 @ m_wstrb [3:0] $end
$var wire 1 A m_wlast $end
$var wire 1 B m_wvalid $end
$var wire 1 C m_wready $end
$var wire 2 D m_bresp [1:0] $end
$var wire 1 E m_bvalid $end
$var wire 1 F m_bready $end
$var reg 32 V src_addr_r [31:0] $end
$var reg 32 W dst_addr_r [31:0] $end
$var reg 16 X length_words_r [15:0] $end
$var reg 32 Y add_value_r [31:0] $end
$var reg 1 Z busy_r $end
$var reg 1 [ done_r $end
$var reg 1 \ error_r $end
$var reg 16 ] processed_count_r [15:0] $end
$var reg 32 ^ last_input_r [31:0] $end
$var reg 32 _ last_output_r [31:0] $end
$var reg 1 ` dma_start_r $end
$var wire 1 a dma_done $end
$var wire 1 b dma_error $end
$var wire 16 c dma_processed_count [15:0] $end
$var wire 32 d dma_last_input [31:0] $end
$var wire 32 e dma_last_output [31:0] $end
$var reg 2 f wstate [1:0] $end
$var reg 32 g aw_latch [31:0] $end
$var reg 32 h wd_latch [31:0] $end
$var reg 1 i rstate $end
$scope module dma_core $end
$var wire 1 K aclk $end
$var wire 1 L aresetn $end
$var wire 1 j start $end
$var wire 32 k src_addr [31:0] $end
$var wire 32 l dst_addr [31:0] $end
$var wire 16 m length_words [15:0] $end
$var wire 32 n add_value [31:0] $end
$var wire 32 d last_input_data [31:0] $end
$var wire 32 e last_output_data [31:0] $end
$var wire 16 c processed_count [15:0] $end
$var wire 1 a done $end
$var wire 1 b error $end
$var wire 32 4 araddr [31:0] $end
$var wire 1 5 arvalid $end
$var wire 1 6 arready $end
$var wire 32 7 rdata [31:0] $end
$var wire 2 8 rresp [1:0] $end
$var wire 1 9 rlast $end
$var wire 1 : rvalid $end
$var wire 1 ; rready $end
$var wire 32 < awaddr [31:0] $end
$var wire 1 = awvalid $end
$var wire 1 > awready $end
$var wire 32 ? wdata [31:0] $end
$var wire 4 @ wstrb [3:0] $end
$var wire 1 A wlast $end
$var wire 1 B wvalid $end
$var wire 1 C wready $end
$var wire 2 D bresp [1:0] $end
$var wire 1 E bvalid $end
$var wire 1 F bready $end
$var reg 3 o state [2:0] $end
$var reg 32 p src_lat [31:0] $end
$var reg 32 q dst_lat [31:0] $end
$var reg 16 r len_lat [15:0] $end
$var reg 32 s add_lat [31:0] $end
$var reg 16 t word_idx [15:0] $end
$var reg 32 u input_lat [31:0] $end
$var reg 16 v processed_count_r [15:0] $end
$var reg 1 w read_err $end
$var reg 1 x write_err $end
$var reg 1 y done_r $end
$var reg 1 z error_r $end
$var wire 32 { cur_raddr [31:0] $end
$var wire 32 | cur_waddr [31:0] $end
$var wire 32 } processed_data [31:0] $end
$upscope $end
$scope function axil_addr_valid $end
$var reg 1 ~ axil_addr_valid $end
$var reg 32 !! a [31:0] $end
$upscope $end
$scope task do_reg_write $end
$var reg 32 "! addr [31:0] $end
$var reg 32 #! data [31:0] $end
$upscope $end
$scope function reg_rdata $end
$var reg 32 $! reg_rdata [31:0] $end
$var reg 32 %! addr [31:0] $end
$var reg 32 &! d [31:0] $end
$upscope $end
$upscope $end
$scope module slave $end
$var wire 1 '! aclk $end
$var wire 1 (! aresetn $end
$var wire 32 < awaddr [31:0] $end
$var wire 1 = awvalid $end
$var reg 1 )! awready $end
$var wire 32 ? wdata [31:0] $end
$var wire 4 @ wstrb [3:0] $end
$var wire 1 A wlast $end
$var wire 1 B wvalid $end
$var reg 1 *! wready $end
$var reg 2 +! bresp [1:0] $end
$var reg 1 ,! bvalid $end
$var wire 1 F bready $end
$var wire 32 4 araddr [31:0] $end
$var wire 1 5 arvalid $end
$var reg 1 -! arready $end
$var reg 32 .! rdata [31:0] $end
$var reg 2 /! rresp [1:0] $end
$var reg 1 0! rlast $end
$var reg 1 1! rvalid $end
$var wire 1 ; rready $end
$var integer 32 2! init_i [31:0] $end
$var reg 2 3! wstate [1:0] $end
$var reg 32 4! aw_latch [31:0] $end
$var reg 32 5! wd_latch [31:0] $end
$var reg 4 6! ws_latch [3:0] $end
$var integer 32 7! i [31:0] $end
$var reg 1 8! rstate $end
$scope function addr_in_range $end
$var reg 1 ~ addr_in_range $end
$var reg 32 !! a [31:0] $end
$upscope $end
$scope task do_write $end
$var reg 32 9! a [31:0] $end
$var reg 32 :! d [31:0] $end
$var reg 4 ;! s [3:0] $end
$var integer 32 <! idx [31:0] $end
$upscope $end
$upscope $end
$scope task check_eq $end
$var reg 32 =! got [31:0] $end
$var reg 32 >! exp [31:0] $end
$var reg 32 ?! label $end
$upscope $end
$scope task check_bit $end
$var reg 1 @! got $end
$var reg 1 A! exp $end
$var reg 32 ?! label $end
$upscope $end
$scope task check_resp $end
$var reg 2 B! got [1:0] $end
$var reg 2 C! exp [1:0] $end
$var reg 32 ?! label $end
$upscope $end
$scope task axil_write32 $end
$var reg 32 =! addr [31:0] $end
$var reg 32 >! data [31:0] $end
$var reg 2 D! got_resp [1:0] $end
$var reg 32 E! timeout [31:0] $end
$upscope $end
$scope task axil_write_aw_first $end
$var reg 32 =! addr [31:0] $end
$var reg 32 >! data [31:0] $end
$var reg 2 D! got_resp [1:0] $end
$var reg 32 E! timeout [31:0] $end
$upscope $end
$scope task axil_write_w_first $end
$var reg 32 =! addr [31:0] $end
$var reg 32 >! data [31:0] $end
$var reg 2 D! got_resp [1:0] $end
$var reg 32 E! timeout [31:0] $end
$upscope $end
$scope task axil_write_bready_delay $end
$var reg 32 =! addr [31:0] $end
$var reg 32 >! data [31:0] $end
$var reg 32 ?! delay_cycles [31:0] $end
$var reg 2 F! got_resp [1:0] $end
$var reg 32 G! timeout [31:0] $end
$scope begin Block238_7 $end
$var reg 32 H! d [31:0] $end
$upscope $end
$upscope $end
$scope task axil_read32 $end
$var reg 32 =! addr [31:0] $end
$var reg 32 >! rdata_out [31:0] $end
$var reg 2 D! got_resp [1:0] $end
$var reg 32 E! timeout [31:0] $end
$upscope $end
$scope task axil_read_rready_delay $end
$var reg 32 =! addr [31:0] $end
$var reg 2 C! exp_resp [1:0] $end
$var reg 32 ?! delay_cycles [31:0] $end
$var reg 32 E! data_out [31:0] $end
$var reg 32 G! snap_rdata [31:0] $end
$var reg 2 I! snap_rresp [1:0] $end
$var reg 32 J! timeout [31:0] $end
$scope begin Block321_8 $end
$var reg 32 H! d [31:0] $end
$upscope $end
$upscope $end
$scope task poll_done $end
$var reg 32 =! timeout_cycles [31:0] $end
$var reg 32 >! st [31:0] $end
$var reg 2 D! r [1:0] $end
$var reg 32 E! cnt [31:0] $end
$upscope $end
$scope task start_transfer $end
$var reg 32 =! src [31:0] $end
$var reg 32 >! dst [31:0] $end
$var reg 32 ?! add_val [31:0] $end
$var reg 16 K! len [15:0] $end
$var reg 2 L! r [1:0] $end
$upscope $end
$scope task xilinx_isim_temp_0_ln372_excessive_seqblock_chunk $end
$upscope $end
$scope task xilinx_isim_temp_1_ln372_excessive_seqblock_chunk $end
$upscope $end
$scope task xilinx_isim_temp_2_ln372_excessive_seqblock_chunk $end
$upscope $end
$scope task xilinx_isim_temp_3_ln372_excessive_seqblock_chunk $end
$upscope $end
$scope task xilinx_isim_temp_4_ln372_excessive_seqblock_chunk $end
$upscope $end
$scope task xilinx_isim_temp_5_ln372_excessive_seqblock_chunk $end
$upscope $end
$scope task xilinx_isim_temp_6_ln372_excessive_seqblock_chunk $end
$upscope $end
$scope task xilinx_isim_temp_7_ln372_excessive_seqblock_chunk $end
$upscope $end
$scope task xilinx_isim_temp_8_ln372_excessive_seqblock_chunk $end
$scope begin t16_body $end
$var integer 32 M! t16_k [31:0] $end
$var integer 32 N! t16_j [31:0] $end
$var integer 32 O! t16_len_i [31:0] $end
$var integer 32 P! t16_add_i [31:0] $end
$var reg 32 Q! t16_src_w [31:0] $end
$var reg 32 R! t16_exp_w [31:0] $end
$upscope $end
$scope begin t17_orig_dst_check $end
$var integer 32 S! t17_i [31:0] $end
$upscope $end
$upscope $end
$scope task xilinx_isim_temp_9_ln372_excessive_seqblock_chunk $end
$scope begin t17_new_dst_check $end
$var integer 32 T! t17_j [31:0] $end
$upscope $end
$upscope $end
$upscope $end
$enddefinitions $end
#0
$dumpvars
0!
b0 !!
0"
bx "!
b0 #
bx #!
0$
bx $!
1%
bx %!
b0 &
bx &!
b0 '
0'!
0(
0(!
1)
1)!
b0 *
1*!
0+
b0 +!
0,
0,!
b0 -
1-!
0.
b0 .!
1/
b0 /!
b0 0
00!
b0 1
01!
02
b10000000000 2!
03
b0 3!
b0 4
bx 4!
05
bx 5!
16
bx 6!
b0 7
bx 7!
b0 8
08!
09
bx 9!
0:
bx :!
0;
bx ;!
b0 <
bx <!
0=
b0 =!
1>
b0 >!
b0 ?
b0 ?!
b1111 @
0@!
1A
0A!
0B
b0 B!
1C
b0 C!
b0 D
b0 D!
0E
b0 E!
0F
b0 F!
b0 G
b0 G!
b0 H
b0 H!
bx I
b0 I!
bx J
bzx0x11 J!
0K
b0 K!
0L
b0 L!
b0 M
bx M!
0N
bx N!
b0 O
bx O!
b0 P
bx P!
0Q
bx Q!
0R
bx R!
b0 S
bx S!
0T
bx T!
0U
b0 V
b0 W
b0 X
b0 Y
0Z
0[
0\
b0 ]
b0 ^
b0 _
0`
0a
0b
b0 c
b0 d
b0 e
b0 f
b0 g
b0 h
0i
0j
b0 k
b0 l
b0 m
b0 n
b0 o
b0 p
b0 q
b0 r
b0 s
b0 t
b0 u
b0 v
0w
0x
0y
0z
b0 {
b0 |
b0 }
0~
$end
#5000
1!
1'!
1K
#10000
0!
0'!
0K
#15000
1!
1'!
1K
#20000
0!
0'!
0K
#25000
1!
1'!
1K
#30000
0!
0'!
0K
#35000
1!
1'!
1K
#40000
0!
0'!
0K
#45000
1!
1'!
1K
#50000
0!
0'!
0K
#55000
1!
1'!
1K
#60000
0!
0'!
0K
#65000
1!
1'!
1K
#70000
0!
0'!
0K
#75000
1!
1"
1'!
1(!
1K
1L
#80000
0!
0'!
0K
#85000
1!
1'!
1K
#90000
0!
0'!
0K
#95000
1!
1'!
1K
#100000
0!
b100 #
1$
b11011110101011011011111011101111 &
b1111 '
0'!
1(
0K
b100 M
1N
b11011110101011011011111011101111 O
b1111 P
1Q
#105000
1!
b100 "!
b11011110101011011011111011101111 #!
0%
1'!
0)
1+
1K
b11011110101011011011111011101111 V
b11 f
b11011110101011011011111011101111 k
#110000
0!
0$
0'!
0(
1,
0K
0N
0Q
1R
#115000
1!
1%
1'!
1)
0+
1K
b0 f
#120000
0!
0'!
0,
b1 G
b0 J
0K
0R
#125000
1!
1'!
1K
#130000
0!
b1000 #
1$
b11001010111111101111000000001101 &
b1111 '
0'!
1(
0K
b1000 M
1N
b11001010111111101111000000001101 O
1Q
#135000
1!
b1000 "!
b11001010111111101111000000001101 #!
0%
1'!
0)
1+
1K
b11001010111111101111000000001101 W
b11 f
b11001010111111101111000000001101 l
#140000
0!
0$
0'!
0(
1,
0K
0N
0Q
1R
#145000
1!
1%
1'!
1)
0+
1K
b0 f
#150000
0!
0'!
0,
b10 G
0K
0R
#155000
1!
1'!
1K
#160000
0!
b1100 #
1$
b111 &
b1111 '
0'!
1(
0K
b1100 M
1N
b111 O
1Q
#165000
1!
b1100 "!
b111 #!
0%
1'!
0)
1+
1K
b111 X
b11 f
b111 m
#170000
0!
0$
0'!
0(
1,
0K
0N
0Q
1R
#175000
1!
1%
1'!
1)
0+
1K
b0 f
#180000
0!
0'!
0,
b11 G
0K
0R
#185000
1!
1'!
1K
#190000
0!
b10000 #
1$
b1000010 &
b1111 '
0'!
1(
0K
b10000 M
1N
b1000010 O
1Q
#195000
1!
b10000 "!
b1000010 #!
0%
1'!
0)
1+
1K
b1000010 Y
b11 f
b1000010 n
#200000
0!
0$
0'!
0(
1,
0K
0N
0Q
1R
#205000
1!
1%
1'!
1)
0+
1K
b0 f
#210000
0!
0'!
0,
b100 G
0K
0R
#215000
1!
1'!
1K
#220000
0!
0'!
b100 -
1.
0K
b100 S
1T
#225000
1!
b11011110101011011011111011101111 $!
b100 %!
b11011110101011011011111011101111 &!
1'!
0/
b11011110101011011011111011101111 0
12
1K
1i
#230000
0!
0'!
0.
13
0K
0T
1U
#235000
1!
1'!
1/
02
1K
0i
#240000
0!
0'!
03
b110 G
b11011110101011011011111011101111 I
0K
0U
#245000
1!
1'!
1K
#250000
0!
0'!
b1000 -
1.
0K
b1000 S
1T
#255000
1!
b11001010111111101111000000001101 $!
b1000 %!
b11001010111111101111000000001101 &!
1'!
0/
b11001010111111101111000000001101 0
12
1K
1i
#260000
0!
0'!
0.
13
0K
0T
1U
#265000
1!
1'!
1/
02
1K
0i
#270000
0!
0'!
03
b1000 G
b11001010111111101111000000001101 I
0K
0U
#275000
1!
1'!
1K
#280000
0!
0'!
b1100 -
1.
0K
b1100 S
1T
#285000
1!
b111 $!
b1100 %!
b111 &!
1'!
0/
b111 0
12
1K
1i
#290000
0!
0'!
0.
13
0K
0T
1U
#295000
1!
1'!
1/
02
1K
0i
#300000
0!
0'!
03
b1010 G
b111 I
0K
0U
#305000
1!
1'!
1K
#310000
0!
0'!
b10000 -
1.
0K
b10000 S
1T
#315000
1!
b1000010 $!
b10000 %!
b1000010 &!
1'!
0/
b1000010 0
12
1K
1i
#320000
0!
0'!
0.
13
0K
0T
1U
#325000
1!
1'!
1/
02
1K
0i
#330000
0!
0'!
03
b1100 G
b1000010 I
0K
0U
#335000
1!
1'!
1K
#340000
0!
b110000 #
1$
b11011110101011011101111010101101 &
b1111 '
0'!
1(
0K
b110000 M
1N
b11011110101011011101111010101101 O
1Q
#345000
1!
0%
1'!
0)
b10 *
1+
1K
b11 f
#350000
0!
0$
0'!
0(
1,
0K
0N
0Q
1R
#355000
1!
1%
1'!
1)
b0 *
0+
1K
b0 f
#360000
0!
0'!
0,
b1101 G
b10 J
0K
0R
#365000
1!
1'!
1K
#370000
0!
0'!
b110000 -
1.
0K
b110000 S
1T
#375000
1!
1'!
0/
b0 0
b10 1
12
1K
1i
#380000
0!
0'!
0.
13
0K
0T
1U
#385000
1!
1'!
1/
b0 1
02
1K
0i
#390000
0!
0'!
03
b1111 G
b0 I
0K
0U
#395000
1!
1'!
1K
#400000
0!
b100 #
1$
b0 &
b1111 '
0'!
1(
0K
b100 M
1N
b0 O
1Q
#405000
1!
b100 "!
b0 #!
0%
1'!
0)
1+
1K
b0 V
b11 f
b0 k
#410000
0!
0$
0'!
0(
1,
0K
0N
0Q
1R
#415000
1!
1%
1'!
1)
0+
1K
b0 f
#420000
0!
0'!
0,
b10000 G
0K
0R
#425000
1!
1'!
1K
#430000
0!
b1000 #
1$
b1000000 &
b1111 '
0'!
1(
0K
b1000 M
1N
b1000000 O
1Q
#435000
1!
b1000 "!
b1000000 #!
0%
1'!
0)
1+
1K
b1000000 W
b11 f
b1000000 l
#440000
0!
0$
0'!
0(
1,
0K
0N
0Q
1R
#445000
1!
1%
1'!
1)
0+
1K
b0 f
#450000
0!
0'!
0,
b10001 G
0K
0R
#455000
1!
1'!
1K
#460000
0!
b1100 #
1$
b1 &
b1111 '
0'!
1(
0K
b1100 M
1N
b1 O
1Q
#465000
1!
b1100 "!
b1 #!
0%
1'!
0)
1+
1K
b1 X
b11 f
b1 m
#470000
0!
0$
0'!
0(
1,
0K
0N
0Q
1R
#475000
1!
1%
1'!
1)
0+
1K
b0 f
#480000
0!
0'!
0,
b10010 G
0K
0R
#485000
1!
1'!
1K
#490000
0!
b10000 #
1$
b101 &
b1111 '
0'!
1(
0K
b10000 M
1N
b101 O
1Q
#495000
1!
b10000 "!
b101 #!
0%
1'!
0)
1+
1K
b101 Y
b11 f
b101 n
#500000
0!
0$
0'!
0(
1,
0K
0N
0Q
1R
#505000
1!
1%
1'!
1)
0+
1K
b0 f
#510000
0!
0'!
0,
b10011 G
0K
0R
#515000
1!
1'!
1K
#520000
0!
b0 #
1$
b1 &
b1111 '
0'!
1(
0K
b0 M
1N
b1 O
1Q
#525000
1!
b0 "!
b1 #!
0%
1'!
0)
1+
1K
1Z
1`
b11 f
1j
#530000
0!
0$
0'!
0(
1,
0K
0N
0Q
1R
#535000
1!
1%
1'!
1)
0+
15
b1000000 <
b101 ?
1K
0`
b101 e
b0 f
0j
b1 o
b1000000 q
b1 r
b101 s
b1000000 |
b101 }
#540000
0!
0'!
0,
b10100 G
0K
0R
#545000
1!
1'!
0-!
b10000 .!
10!
11!
05
06
b10000 7
18!
19
1:
1;
1K
b10 o
#550000
0!
0'!
b10100 -
1.
0K
b10100 S
1T
#555000
1!
b100 $!
b10100 %!
b100 &!
1'!
1-!
0/
b100 0
00!
01!
12
16
08!
09
0:
0;
1=
b10101 ?
1B
1K
b10000 d
b10101 e
1i
b11 o
b10000 u
b10101 }
#560000
0!
0'!
0.
13
0K
0T
1U
#565000
1!
1'!
0)!
0*!
1,!
1/
02
b11 3!
b1000000 9!
b10101 :!
b1111 ;!
b10000 <!
0=
0>
0B
0C
1E
1F
1K
0i
b100 o
#570000
0!
0'!
03
0K
0U
#575000
1!
1'!
1)!
1*!
0,!
b0 3!
1>
1C
0E
0F
1K
b1 c
b101 o
b1 v
#580000
0!
0'!
b10100 -
1.
0K
1T
#585000
1!
1'!
0/
12
1K
1a
1i
b0 o
1y
#590000
0!
0'!
0.
13
0K
0T
1U
#595000
1!
1'!
1/
02
1K
0Z
1[
b1 ]
b10000 ^
b10101 _
0a
b0 c
0i
b0 v
0y
#600000
0!
0'!
03
0K
0U
#605000
1!
1'!
1K
#610000
0!
0'!
b10100 -
1.
0K
1T
#615000
1!
b1 $!
b1 &!
1'!
0/
b1 0
12
1K
1i
#620000
0!
0'!
0.
13
0K
0T
1U
#625000
1!
1'!
1/
02
1K
0i
#630000
0!
0'!
03
0K
0U
#635000
1!
1'!
1K
#640000
0!
0'!
b10100 -
1.
0K
1T
#645000
1!
1'!
0/
12
1K
1i
#650000
0!
0'!
0.
13
0K
0T
1U
#655000
1!
1'!
1/
02
1K
0i
#660000
0!
0'!
03
b10111 G
b1 I
b0 J
0K
0U
#665000
1!
1'!
1K
#670000
0!
0'!
b11000 -
1.
0K
b11000 S
1T
#675000
1!
b11000 %!
1'!
0/
12
1K
1i
#680000
0!
0'!
0.
13
0K
0T
1U
#685000
1!
1'!
1/
02
1K
0i
#690000
0!
0'!
03
b11001 G
0K
0U
#695000
1!
1'!
1K
#700000
0!
0'!
b11100 -
1.
0K
b11100 S
1T
#705000
1!
b10000 $!
b11100 %!
b10000 &!
1'!
0/
b10000 0
12
1K
1i
#710000
0!
0'!
0.
13
0K
0T
1U
#715000
1!
1'!
1/
02
1K
0i
#720000
0!
0'!
03
b11011 G
b10000 I
0K
0U
#725000
1!
1'!
1K
#730000
0!
0'!
b100000 -
1.
0K
b100000 S
1T
#735000
1!
b10101 $!
b100000 %!
b10101 &!
1'!
0/
b10101 0
12
1K
1i
#740000
0!
0'!
0.
13
0K
0T
1U
#745000
1!
1'!
1/
02
1K
0i
#750000
0!
0'!
03
b11110 G
b10101 I
0K
0U
#755000
1!
1'!
1K
#760000
0!
b100 #
1$
b10000 &
b1111 '
0'!
1(
0K
b100 M
1N
b10000 O
1Q
#765000
1!
b100 "!
b10000 #!
0%
1'!
0)
1+
1K
b10000 V
b11 f
b10000 k
#770000
0!
0$
0'!
0(
1,
0K
0N
0Q
1R
#775000
1!
1%
1'!
1)
0+
1K
b0 f
#780000
0!
0'!
0,
b11111 G
0K
0R
#785000
1!
1'!
1K
#790000
0!
b1000 #
1$
b10000000 &
b1111 '
0'!
1(
0K
b1000 M
1N
b10000000 O
1Q
#795000
1!
b1000 "!
b10000000 #!
0%
1'!
0)
1+
1K
b10000000 W
b11 f
b10000000 l
#800000
0!
0$
0'!
0(
1,
0K
0N
0Q
1R
#805000
1!
1%
1'!
1)
0+
1K
b0 f
#810000
0!
0'!
0,
b100000 G
0K
0R
#815000
1!
1'!
1K
#820000
0!
b1100 #
1$
b100 &
b1111 '
0'!
1(
0K
b1100 M
1N
b100 O
1Q
#825000
1!
b1100 "!
b100 #!
0%
1'!
0)
1+
1K
b100 X
b11 f
b100 m
#830000
0!
0$
0'!
0(
1,
0K
0N
0Q
1R
#835000
1!
1%
1'!
1)
0+
1K
b0 f
#840000
0!
0'!
0,
b100001 G
0K
0R
#845000
1!
1'!
1K
#850000
0!
b10000 #
1$
b100000000 &
b1111 '
0'!
1(
0K
b10000 M
1N
b100000000 O
1Q
#855000
1!
b10000 "!
b100000000 #!
0%
1'!
0)
1+
1K
b100000000 Y
b11 f
b100000000 n
#860000
0!
0$
0'!
0(
1,
0K
0N
0Q
1R
#865000
1!
1%
1'!
1)
0+
1K
b0 f
#870000
0!
0'!
0,
b100010 G
0K
0R
#875000
1!
1'!
1K
#880000
0!
b0 #
1$
b1 &
b1111 '
0'!
1(
0K
b0 M
1N
b1 O
1Q
#885000
1!
b0 "!
b1 #!
0%
1'!
0)
1+
1K
1Z
0[
1`
b11 f
1j
#890000
0!
0$
0'!
0(
1,
0K
0N
0Q
1R
#895000
1!
1%
1'!
1)
0+
b10000 4
15
b10000000 <
b100010000 ?
1K
0`
b100010000 e
b0 f
0j
b1 o
b10000 p
b10000000 q
b100 r
b100000000 s
b10000 {
b10000000 |
b100010000 }
#900000
0!
0'!
0,
b100011 G
0K
0R
#905000
1!
1'!
0-!
b10000000000000000000000000001 .!
10!
11!
05
06
b10000000000000000000000000001 7
18!
19
1:
1;
1K
b10 o
#910000
0!
0'!
b10100 -
1.
0K
b10100 S
1T
#915000
1!
b100 $!
b10100 %!
b100 &!
1'!
1-!
0/
b100 0
00!
01!
12
16
08!
09
0:
0;
1=
b10000000000000000000100000001 ?
1B
1K
b10000000000000000000000000001 d
b10000000000000000000100000001 e
1i
b11 o
b10000000000000000000000000001 u
b10000000000000000000100000001 }
#920000
0!
0'!
0.
13
0K
0T
1U
#925000
1!
1'!
0)!
0*!
1,!
1/
02
b11 3!
b10000000 9!
b10000000000000000000100000001 :!
b100000 <!
0=
0>
0B
0C
1E
1F
1K
0i
b100 o
#930000
0!
0'!
03
0K
0U
#935000
1!
1'!
1)!
1*!
0,!
b0 3!
b10100 4
15
b10000100 <
1>
1C
0E
0F
1K
b1 c
b1 o
b1 t
b1 v
b10100 {
b10000100 |
#940000
0!
0'!
b10100 -
1.
0K
1T
#945000
1!
1'!
0-!
b100000000000000000000000000010 .!
0/
10!
11!
12
05
06
b100000000000000000000000000010 7
18!
19
1:
1;
1K
1i
b10 o
#950000
0!
0'!
0.
13
0K
0T
1U
#955000
1!
1'!
1-!
1/
00!
01!
02
16
08!
09
0:
0;
1=
b100000000000000000000100000010 ?
1B
1K
b100000000000000000000000000010 d
b100000000000000000000100000010 e
0i
b11 o
b100000000000000000000000000010 u
b100000000000000000000100000010 }
#960000
0!
0'!
03
0K
0U
#965000
1!
1'!
0)!
0*!
1,!
b11 3!
b10000100 9!
b100000000000000000000100000010 :!
b100001 <!
0=
0>
0B
0C
1E
1F
1K
b100 o
#970000
0!
0'!
b10100 -
1.
0K
1T
#975000
1!
1'!
1)!
1*!
0,!
0/
12
b0 3!
b11000 4
15
b10001000 <
1>
1C
0E
0F
1K
b10 c
1i
b1 o
b10 t
b10 v
b11000 {
b10001000 |
#980000
0!
0'!
0.
13
0K
0T
1U
#985000
1!
1'!
0-!
b110000000000000000000000000011 .!
1/
10!
11!
02
05
06
b110000000000000000000000000011 7
18!
19
1:
1;
1K
0i
b10 o
#990000
0!
0'!
03
0K
0U
#995000
1!
1'!
1-!
00!
01!
16
08!
09
0:
0;
1=
b110000000000000000000100000011 ?
1B
1K
b110000000000000000000000000011 d
b110000000000000000000100000011 e
b11 o
b110000000000000000000000000011 u
b110000000000000000000100000011 }
#1000000
0!
0'!
b10100 -
1.
0K
1T
#1005000
1!
1'!
0)!
0*!
1,!
0/
12
b11 3!
b10001000 9!
b110000000000000000000100000011 :!
b100010 <!
0=
0>
0B
0C
1E
1F
1K
1i
b100 o
#1010000
0!
0'!
0.
13
0K
0T
1U
#1015000
1!
1'!
1)!
1*!
0,!
1/
02
b0 3!
b11100 4
15
b10001100 <
1>
1C
0E
0F
1K
b11 c
0i
b1 o
b11 t
b11 v
b11100 {
b10001100 |
#1020000
0!
0'!
03
0K
0U
#1025000
1!
1'!
0-!
b1000000000000000000000000000100 .!
10!
11!
05
06
b1000000000000000000000000000100 7
18!
19
1:
1;
1K
b10 o
#1030000
0!
0'!
b10100 -
1.
0K
1T
#1035000
1!
1'!
1-!
0/
00!
01!
12
16
08!
09
0:
0;
1=
b1000000000000000000000100000100 ?
1B
1K
b1000000000000000000000000000100 d
b1000000000000000000000100000100 e
1i
b11 o
b1000000000000000000000000000100 u
b1000000000000000000000100000100 }
#1040000
0!
0'!
0.
13
0K
0T
1U
#1045000
1!
1'!
0)!
0*!
1,!
1/
02
b11 3!
b10001100 9!
b1000000000000000000000100000100 :!
b100011 <!
0=
0>
0B
0C
1E
1F
1K
0i
b100 o
#1050000
0!
0'!
03
0K
0U
#1055000
1!
1'!
1)!
1*!
0,!
b0 3!
1>
1C
0E
0F
1K
b100 c
b101 o
b100 v
#1060000
0!
0'!
b10100 -
1.
0K
1T
#1065000
1!
1'!
0/
12
1K
1a
1i
b0 o
1y
#1070000
0!
0'!
0.
13
0K
0T
1U
#1075000
1!
1'!
1/
02
b10000 4
b10000000 <
1K
0Z
1[
b100 ]
b1000000000000000000000000000100 ^
b1000000000000000000000100000100 _
0a
b0 c
0i
b0 t
b0 v
0y
b10000 {
b10000000 |
#1080000
0!
0'!
03
0K
0U
#1085000
1!
1'!
1K
#1090000
0!
0'!
b10100 -
1.
0K
1T
#1095000
1!
b1 $!
b1 &!
1'!
0/
b1 0
12
1K
1i
#1100000
0!
0'!
0.
13
0K
0T
1U
#1105000
1!
1'!
1/
02
1K
0i
#1110000
0!
0'!
03
0K
0U
#1115000
1!
1'!
1K
#1120000
0!
0'!
b10100 -
1.
0K
1T
#1125000
1!
1'!
0/
12
1K
1i
#1130000
0!
0'!
0.
13
0K
0T
1U
#1135000
1!
1'!
1/
02
1K
0i
#1140000
0!
0'!
03
b100110 G
b1 I
0K
0U
#1145000
1!
1'!
1K
#1150000
0!
0'!
b11000 -
1.
0K
b11000 S
1T
#1155000
1!
b100 $!
b11000 %!
b100 &!
1'!
0/
b100 0
12
1K
1i
#1160000
0!
0'!
0.
13
0K
0T
1U
#1165000
1!
1'!
1/
02
1K
0i
#1170000
0!
0'!
03
b101000 G
b100 I
0K
0U
#1175000
1!
1'!
1K
#1180000
0!
0'!
b11100 -
1.
0K
b11100 S
1T
#1185000
1!
b1000000000000000000000000000100 $!
b11100 %!
b1000000000000000000000000000100 &!
1'!
0/
b1000000000000000000000000000100 0
12
1K
1i
#1190000
0!
0'!
0.
13
0K
0T
1U
#1195000
1!
1'!
1/
02
1K
0i
#1200000
0!
0'!
03
b101010 G
b1000000000000000000000000000100 I
0K
0U
#1205000
1!
1'!
1K
