logs/simple_dma_ctrl_tb.vcd
$date
   Sun May  3 09:21:54 2026
$end
$version
  2022.2
$end
$timescale
  1ps
$end
$scope module simple_dma_ctrl_tb $end
$var reg 1 ! aclk $end
$var reg 1 " aresetn $end
$var reg 32 # s_awaddr_tb [31:0] $end
$var reg 1 $ s_awvalid_tb $end
$var reg 32 % s_wdata_tb [31:0] $end
$var reg 4 & s_wstrb_tb [3:0] $end
$var reg 1 ' s_wvalid_tb $end
$var reg 1 ( s_bready_tb $end
$var reg 32 ) s_araddr_tb [31:0] $end
$var reg 1 * s_arvalid_tb $end
$var reg 1 + s_rready_tb $end
$var wire 1 , s_awready $end
$var wire 1 - s_wready $end
$var wire 2 . s_bresp [1:0] $end
$var wire 1 / s_bvalid $end
$var wire 1 0 s_arready $end
$var wire 32 1 s_rdata [31:0] $end
$var wire 2 2 s_rresp [1:0] $end
$var wire 1 3 s_rvalid $end
$var wire 32 4 m_araddr [31:0] $end
$var wire 1 5 m_arvalid $end
$var wire 1 6 m_arready $end
$var wire 32 7 m_rdata [31:0] $end
$var wire 2 8 m_rresp [1:0] $end
$var wire 1 9 m_rlast $end
$var wire 1 : m_rvalid $end
$var wire 1 ; m_rready $end
$var wire 32 < m_awaddr [31:0] $end
$var wire 1 = m_awvalid $end
$var wire 1 > m_awready $end
$var wire 32 ? m_wdata [31:0] $end
$var wire 4 @ m_wstrb [3:0] $end
$var wire 1 A m_wlast $end
$var wire 1 B m_wvalid $end
$var wire 1 C m_wready $end
$var wire 2 D m_bresp [1:0] $end
$var wire 1 E m_bvalid $end
$var wire 1 F m_bready $end
$var reg 32 G pass_count [31:0] $end
$var reg 32 H fail_count [31:0] $end
$var reg 32 I rdata [31:0] $end
$var reg 32 J status [31:0] $end
$var reg 32 K OKAY [31:0] $end
$var reg 32 L SLVERR_32 [31:0] $end
$scope module dut $end
$var wire 1 M aclk $end
$var wire 1 N aresetn $end
$var wire 32 O s_awaddr [31:0] $end
$var wire 1 P s_awvalid $end
$var reg 1 Q s_awready $end
$var wire 32 R s_wdata [31:0] $end
$var wire 4 S s_wstrb [3:0] $end
$var wire 1 T s_wvalid $end
$var reg 1 U s_wready $end
$var reg 2 V s_bresp [1:0] $end
$var reg 1 W s_bvalid $end
$var wire 1 X s_bready $end
$var wire 32 Y s_araddr [31:0] $end
$var wire 1 Z s_arvalid $end
$var reg 1 [ s_arready $end
$var reg 32 \ s_rdata [31:0] $end
$var reg 2 ] s_rresp [1:0] $end
$var reg 1 ^ s_rvalid $end
$var wire 1 _ s_rready $end
$var wire 32 4 m_araddr [31:0] $end
$var wire 1 5 m_arvalid $end
$var wire 1 6 m_arready $end
$var wire 32 7 m_rdata [31:0] $end
$var wire 2 8 m_rresp [1:0] $end
$var wire 1 9 m_rlast $end
$var wire 1 : m_rvalid $end
$var wire 1 ; m_rready $end
$var wire 32 < m_awaddr [31:0] $end
$var wire 1 = m_awvalid $end
$var wire 1 > m_awready $end
$var wire 32 ? m_wdata [31:0] $end
$var wire 4 @ m_wstrb [3:0] $end
$var wire 1 A m_wlast $end
$var wire 1 B m_wvalid $end
$var wire 1 C m_wready $end
$var wire 2 D m_bresp [1:0] $end
$var wire 1 E m_bvalid $end
$var wire 1 F m_bready $end
$var reg 32 ` src_addr_r [31:0] $end
$var reg 32 a dst_addr_r [31:0] $end
$var reg 16 b length_words_r [15:0] $end
$var reg 1 c busy_r $end
$var reg 1 d done_r $end
$var reg 1 e error_r $end
$var reg 16 f copied_count_r [15:0] $end
$var reg 1 g dma_start_r $end
$var wire 1 h dma_done $end
$var wire 1 i dma_error $end
$var wire 16 j dma_copied_count [15:0] $end
$var wire 32 k dma_last_data [31:0] $end
$var reg 2 l wstate [1:0] $end
$var reg 32 m aw_latch [31:0] $end
$var reg 32 n wd_latch [31:0] $end
$var reg 4 o ws_latch [3:0] $end
$var reg 1 p rstate $end
$scope module dma_core $end
$var wire 1 M aclk $end
$var wire 1 N aresetn $end
$var wire 1 q start $end
$var wire 32 r src_addr [31:0] $end
$var wire 32 s dst_addr [31:0] $end
$var wire 16 t length_words [15:0] $end
$var wire 32 k last_copied_data [31:0] $end
$var wire 16 j copied_count [15:0] $end
$var wire 1 h done $end
$var wire 1 i error $end
$var wire 32 4 araddr [31:0] $end
$var wire 1 5 arvalid $end
$var wire 1 6 arready $end
$var wire 32 7 rdata [31:0] $end
$var wire 2 8 rresp [1:0] $end
$var wire 1 9 rlast $end
$var wire 1 : rvalid $end
$var wire 1 ; rready $end
$var wire 32 < awaddr [31:0] $end
$var wire 1 = awvalid $end
$var wire 1 > awready $end
$var wire 32 ? wdata [31:0] $end
$var wire 4 @ wstrb [3:0] $end
$var wire 1 A wlast $end
$var wire 1 B wvalid $end
$var wire 1 C wready $end
$var wire 2 D bresp [1:0] $end
$var wire 1 E bvalid $end
$var wire 1 F bready $end
$var reg 3 u state [2:0] $end
$var reg 32 v src_lat [31:0] $end
$var reg 32 w dst_lat [31:0] $end
$var reg 16 x len_lat [15:0] $end
$var reg 16 y word_idx [15:0] $end
$var reg 32 z rdata_lat [31:0] $end
$var reg 16 { copied_count_r [15:0] $end
$var reg 1 | read_err $end
$var reg 1 } write_err $end
$var reg 1 ~ done_r $end
$var reg 1 !! error_r $end
$var wire 32 "! cur_raddr [31:0] $end
$var wire 32 #! cur_waddr [31:0] $end
$upscope $end
$scope function axil_addr_valid $end
$var reg 1 $! axil_addr_valid $end
$var reg 32 %! a [31:0] $end
$upscope $end
$scope task do_reg_write $end
$var reg 32 &! addr [31:0] $end
$var reg 32 '! data [31:0] $end
$upscope $end
$scope function reg_rdata $end
$var reg 32 (! reg_rdata [31:0] $end
$var reg 32 )! addr [31:0] $end
$var reg 32 *! d [31:0] $end
$upscope $end
$upscope $end
$scope module mem_slave $end
$var wire 1 +! aclk $end
$var wire 1 ,! aresetn $end
$var wire 32 < awaddr [31:0] $end
$var wire 1 = awvalid $end
$var reg 1 -! awready $end
$var wire 32 ? wdata [31:0] $end
$var wire 4 @ wstrb [3:0] $end
$var wire 1 A wlast $end
$var wire 1 B wvalid $end
$var reg 1 .! wready $end
$var reg 2 /! bresp [1:0] $end
$var reg 1 0! bvalid $end
$var wire 1 F bready $end
$var wire 32 4 araddr [31:0] $end
$var wire 1 5 arvalid $end
$var reg 1 1! arready $end
$var reg 32 2! rdata [31:0] $end
$var reg 2 3! rresp [1:0] $end
$var reg 1 4! rlast $end
$var reg 1 5! rvalid $end
$var wire 1 ; rready $end
$var integer 32 6! init_i [31:0] $end
$var reg 2 7! wstate [1:0] $end
$var reg 32 8! aw_latch [31:0] $end
$var reg 32 9! wd_latch [31:0] $end
$var reg 4 :! ws_latch [3:0] $end
$var integer 32 ;! i [31:0] $end
$var reg 1 <! rstate $end
$scope function addr_in_range $end
$var reg 1 $! addr_in_range $end
$var reg 32 %! a [31:0] $end
$upscope $end
$scope task do_write $end
$var reg 32 =! a [31:0] $end
$var reg 32 >! d [31:0] $end
$var reg 4 ?! s [3:0] $end
$var integer 32 @! idx [31:0] $end
$upscope $end
$upscope $end
$scope begin Block717_8 $end
$var reg 32 A! rd9 [31:0] $end
$upscope $end
$scope task check_eq $end
$var reg 32 B! got [31:0] $end
$var reg 32 C! exp [31:0] $end
$var reg 32 D! label $end
$upscope $end
$scope task check_eq16 $end
$var reg 16 E! got [15:0] $end
$var reg 16 F! exp [15:0] $end
$var reg 32 D! label $end
$upscope $end
$scope task check_bit $end
$var reg 1 G! got $end
$var reg 1 H! exp $end
$var reg 32 D! label $end
$upscope $end
$scope task check_le32 $end
$var reg 32 B! got [31:0] $end
$var reg 32 C! max_val [31:0] $end
$var reg 32 D! label $end
$upscope $end
$scope task axil_write32 $end
$var reg 32 B! addr [31:0] $end
$var reg 32 C! data [31:0] $end
$var reg 2 I! exp_resp [1:0] $end
$var reg 2 J! got_resp [1:0] $end
$var reg 32 K! timeout [31:0] $end
$upscope $end
$scope task axil_write_aw_first $end
$var reg 32 B! addr [31:0] $end
$var reg 32 C! data [31:0] $end
$var reg 2 I! exp_resp [1:0] $end
$var reg 2 J! got_resp [1:0] $end
$var reg 32 K! timeout [31:0] $end
$upscope $end
$scope task axil_write_w_first $end
$var reg 32 B! addr [31:0] $end
$var reg 32 C! data [31:0] $end
$var reg 2 I! exp_resp [1:0] $end
$var reg 2 J! got_resp [1:0] $end
$var reg 32 K! timeout [31:0] $end
$upscope $end
$scope task axil_write_bready_delay $end
$var reg 32 B! addr [31:0] $end
$var reg 32 C! data [31:0] $end
$var reg 2 I! exp_resp [1:0] $end
$var reg 32 L! delay_cycles [31:0] $end
$var reg 2 M! got_resp [1:0] $end
$var reg 32 N! timeout [31:0] $end
$var reg 32 O! d [31:0] $end
$upscope $end
$scope task axil_read_rready_delay $end
$var reg 32 B! addr [31:0] $end
$var reg 2 P! exp_resp [1:0] $end
$var reg 32 D! delay_cycles [31:0] $end
$var reg 32 L! data [31:0] $end
$var reg 32 K! rdata_snap [31:0] $end
$var reg 2 Q! rresp_snap [1:0] $end
$var reg 2 R! got_resp [1:0] $end
$var reg 32 S! timeout [31:0] $end
$var reg 32 T! d [31:0] $end
$upscope $end
$scope task axil_raw_read $end
$var reg 32 B! addr [31:0] $end
$var reg 32 C! data [31:0] $end
$var reg 32 D! timeout [31:0] $end
$upscope $end
$scope task axil_read32 $end
$var reg 32 B! addr [31:0] $end
$var reg 2 P! exp_resp [1:0] $end
$var reg 32 D! data [31:0] $end
$var reg 2 J! got_resp [1:0] $end
$var reg 32 K! timeout [31:0] $end
$upscope $end
$scope task poll_done $end
$var reg 32 B! status_out [31:0] $end
$var reg 32 C! rd [31:0] $end
$var reg 32 D! timeout [31:0] $end
$upscope $end
$upscope $end
$enddefinitions $end
#0
$dumpvars
0!
0!!
0"
b0 "!
b0 #
b0 #!
0$
0$!
b0 %
b0 %!
b0 &
bx &!
0'
bx '!
0(
bx (!
b0 )
bx )!
0*
bx *!
0+
0+!
1,
0,!
1-
1-!
b0 .
1.!
0/
b0 /!
10
00!
b0 1
11!
b0 2
b0 2!
03
b0 3!
b0 4
04!
05
05!
16
b10000000000 6!
b0 7
b0 7!
b0 8
bx 8!
09
bx 9!
0:
bx :!
0;
bx ;!
b0 <
0<!
0=
bx =!
1>
bx >!
b0 ?
bx ?!
b1111 @
bx @!
1A
bx A!
0B
b0 B!
1C
b0 C!
b0 D
b0 D!
0E
b0 E!
0F
b0 F!
b0 G
0G!
b0 H
0H!
bx I
b0 I!
bx J
b0 J!
b0 K
b0 K!
b10 L
b0 L!
0M
b0 M!
0N
b0 N!
b0 O
bzx0x11 O!
0P
b0 P!
1Q
b0 Q!
b0 R
b11 R!
b0 S
b100000001000010zz10x1011xxxz0z S!
0T
b100000001000010zz10x1100xxzz0z T!
1U
b0 V
0W
0X
b0 Y
0Z
1[
b0 \
b0 ]
0^
0_
b0 `
b0 a
b0 b
0c
0d
0e
b0 f
0g
0h
0i
b0 j
b0 k
b0 l
b0 m
b0 n
b0 o
0p
0q
b0 r
b0 s
b0 t
b0 u
b0 v
b0 w
b0 x
b0 y
b0 z
b0 {
0|
0}
0~
$end
#5000
1!
1+!
1M
#10000
0!
0+!
0M
#15000
1!
1+!
1M
#20000
0!
0+!
0M
#25000
1!
1+!
1M
#30000
0!
0+!
0M
#35000
1!
1+!
1M
#40000
0!
0+!
0M
#45000
1!
1+!
1M
#50000
0!
0+!
0M
#55000
1!
1+!
1M
#60000
0!
0+!
0M
#65000
1!
1+!
1M
#70000
0!
0+!
0M
#75000
1!
1"
1+!
1,!
1M
1N
#80000
0!
0+!
0M
#85000
1!
1+!
1M
#90000
0!
0+!
0M
#95000
1!
1+!
1M
#100000
0!
b100 #
1$
b0 %
b1111 &
1'
0+!
0M
b100 O
1P
b1111 S
1T
#105000
1!
b100 &!
b0 '!
1+!
0,
0-
1/
1M
0Q
0U
1W
b11 l
#110000
0!
0$
0'
1(
0+!
0M
0P
0T
1X
#115000
1!
1+!
1,
1-
0/
1M
1Q
1U
0W
b0 l
#120000
0!
0(
0+!
b1 G
0M
0X
#125000
1!
1+!
1M
#130000
0!
b1000 #
1$
b10000000 %
b1111 &
1'
0+!
0M
b1000 O
1P
b10000000 R
1T
#135000
1!
b1000 &!
b10000000 '!
1+!
0,
0-
1/
1M
0Q
0U
1W
b10000000 a
b11 l
b10000000 s
#140000
0!
0$
0'
1(
0+!
0M
0P
0T
1X
#145000
1!
1+!
1,
1-
0/
1M
1Q
1U
0W
b0 l
#150000
0!
0(
0+!
b10 G
0M
0X
#155000
1!
1+!
1M
#160000
0!
b1100 #
1$
b100 %
b1111 &
1'
0+!
0M
b1100 O
1P
b100 R
1T
#165000
1!
b1100 &!
b100 '!
1+!
0,
0-
1/
1M
0Q
0U
1W
b100 b
b11 l
b100 t
#170000
0!
0$
0'
1(
0+!
0M
0P
0T
1X
#175000
1!
1+!
1,
1-
0/
1M
1Q
1U
0W
b0 l
#180000
0!
0(
0+!
b11 G
0M
0X
#185000
1!
1+!
1M
#190000
0!
b0 #
1$
b1 %
b1111 &
1'
0+!
0M
b0 O
1P
b1 R
1T
#195000
1!
b0 &!
b1 '!
1+!
0,
0-
1/
1M
0Q
0U
1W
1c
1g
b11 l
1q
#200000
0!
0$
0'
1(
0+!
0M
0P
0T
1X
#205000
1!
b10000000 #!
1+!
1,
1-
0/
15
b10000000 <
1M
1Q
1U
0W
0g
b0 l
0q
b1 u
b10000000 w
b100 x
#210000
0!
0(
0+!
b100 G
0M
0X
#215000
1!
1+!
01!
b11011110101011011011111011101111 2!
14!
05
15!
06
b11011110101011011011111011101111 7
19
1:
1;
1<!
1M
b10 u
#220000
0!
b10000 )
1*
0+!
0M
b10000 Y
1Z
#225000
1!
b0 (!
b10000 )!
b0 *!
1+!
00
11!
13
04!
05!
16
09
0:
0;
0<!
1=
b11011110101011011011111011101111 ?
1B
1M
0[
1^
b11011110101011011011111011101111 k
1p
b11 u
b11011110101011011011111011101111 z
#230000
0!
0*
1+
0+!
0M
0Z
1_
#235000
1!
1+!
0-!
0.!
10
10!
03
b11 7!
0=
b10000000 =!
0>
b11011110101011011011111011101111 >!
b1111 ?!
b100000 @!
0B
0C
1E
1F
1M
1[
0^
0p
b100 u
#240000
0!
0+
0+!
0M
0_
#245000
1!
b100 "!
b10000100 #!
1+!
1-!
1.!
00!
b100 4
15
b0 7!
b10000100 <
1>
1C
0E
0F
1M
b1 j
b1 u
b1 y
b1 {
#250000
0!
b10000 )
1*
0+!
0M
1Z
#255000
1!
1+!
00
01!
b11001010111111101111000000001101 2!
13
14!
05
15!
06
b11001010111111101111000000001101 7
19
1:
1;
1<!
1M
0[
1^
1p
b10 u
#260000
0!
0*
1+
0+!
0M
0Z
1_
#265000
1!
1+!
10
11!
03
04!
05!
16
09
0:
0;
0<!
1=
b11001010111111101111000000001101 ?
1B
1M
1[
0^
b11001010111111101111000000001101 k
0p
b11 u
b11001010111111101111000000001101 z
#270000
0!
0+
0+!
0M
0_
#275000
1!
1+!
0-!
0.!
10!
b11 7!
0=
b10000100 =!
0>
b11001010111111101111000000001101 >!
b100001 @!
0B
0C
1E
1F
1M
b100 u
#280000
0!
b10000 )
1*
0+!
0M
1Z
#285000
1!
b1000 "!
b10001000 #!
1+!
1-!
1.!
00
00!
13
b1000 4
15
b0 7!
b10001000 <
1>
1C
0E
0F
1M
0[
1^
b10 j
1p
b1 u
b10 y
b10 {
#290000
0!
0*
1+
0+!
0M
0Z
1_
#295000
1!
1+!
10
01!
b10100101101001011010010110100101 2!
03
14!
05
15!
06
b10100101101001011010010110100101 7
19
1:
1;
1<!
1M
1[
0^
0p
b10 u
#300000
0!
0+
0+!
0M
0_
#305000
1!
1+!
11!
04!
05!
16
09
0:
0;
0<!
1=
b10100101101001011010010110100101 ?
1B
1M
b10100101101001011010010110100101 k
b11 u
b10100101101001011010010110100101 z
#310000
0!
b10000 )
1*
0+!
0M
1Z
#315000
1!
1+!
0-!
0.!
00
10!
13
b11 7!
0=
b10001000 =!
0>
b10100101101001011010010110100101 >!
b100010 @!
0B
0C
1E
1F
1M
0[
1^
1p
b100 u
#320000
0!
0*
1+
0+!
0M
0Z
1_
#325000
1!
b1100 "!
b10001100 #!
1+!
1-!
1.!
10
00!
03
b1100 4
15
b0 7!
b10001100 <
1>
1C
0E
0F
1M
1[
0^
b11 j
0p
b1 u
b11 y
b11 {
#330000
0!
0+
0+!
0M
0_
#335000
1!
1+!
01!
b10010001101000101011001111000 2!
14!
05
15!
06
b10010001101000101011001111000 7
19
1:
1;
1<!
1M
b10 u
#340000
0!
b10000 )
1*
0+!
0M
1Z
#345000
1!
1+!
00
11!
13
04!
05!
16
09
0:
0;
0<!
1=
b10010001101000101011001111000 ?
1B
1M
0[
1^
b10010001101000101011001111000 k
1p
b11 u
b10010001101000101011001111000 z
#350000
0!
0*
1+
0+!
0M
0Z
1_
#355000
1!
1+!
0-!
0.!
10
10!
03
b11 7!
0=
b10001100 =!
0>
b10010001101000101011001111000 >!
b100011 @!
0B
0C
1E
1F
1M
1[
0^
0p
b100 u
#360000
0!
0+
0+!
0M
0_
#365000
1!
1+!
1-!
1.!
00!
b0 7!
1>
1C
0E
0F
1M
b100 j
b101 u
b100 {
#370000
0!
b10000 )
1*
0+!
0M
1Z
#375000
1!
1+!
00
13
1M
0[
1^
1h
1p
b0 u
1~
#380000
0!
0*
1+
0+!
0M
0Z
1_
#385000
1!
b0 "!
b10000000 #!
1+!
10
03
b0 4
b10000000 <
1M
1[
0^
0c
1d
b100 f
0h
b0 j
0p
b0 y
b0 {
0~
#390000
0!
0+
0+!
0M
0_
#395000
1!
1+!
1M
#400000
0!
b10000 )
1*
0+!
0M
1Z
#405000
1!
b1 (!
b1 *!
1+!
00
b1 1
13
1M
0[
b1 \
1^
1p
#410000
0!
0*
1+
0+!
0M
0Z
1_
#415000
1!
1+!
10
03
1M
1[
0^
0p
#420000
0!
0+
0+!
b110 G
b1 J
0M
0_
#425000
1!
1+!
1M
#430000
0!
b10100 )
1*
0+!
0M
b10100 Y
1Z
#435000
1!
b100 (!
b10100 )!
b100 *!
1+!
00
b100 1
13
1M
0[
b100 \
1^
1p
#440000
0!
0*
1+
0+!
0M
0Z
1_
#445000
1!
1+!
10
03
1M
1[
0^
0p
#450000
0!
0+
0+!
b1011 G
b100 I
0M
0_
#455000
1!
1+!
1M
#460000
0!
b100 #
1$
b100 %
b1111 &
1'
0+!
0M
b100 O
1P
b100 R
1T
#465000
1!
b100 &!
b100 '!
1+!
0,
0-
1/
1M
0Q
0U
1W
b100 `
b11 l
b100 r
#470000
0!
0$
0'
1(
0+!
0M
0P
0T
1X
#475000
1!
1+!
1,
1-
0/
1M
1Q
1U
0W
b0 l
#480000
0!
0(
0+!
b1100 G
0M
0X
#485000
1!
1+!
1M
#490000
0!
b1000 #
1$
b11000000 %
b1111 &
1'
0+!
0M
b1000 O
1P
b11000000 R
1T
#495000
1!
b1000 &!
b11000000 '!
1+!
0,
0-
1/
1M
0Q
0U
1W
b11000000 a
b11 l
b11000000 s
#500000
0!
0$
0'
1(
0+!
0M
0P
0T
1X
#505000
1!
1+!
1,
1-
0/
1M
1Q
1U
0W
b0 l
#510000
0!
0(
0+!
b1101 G
0M
0X
#515000
1!
1+!
1M
#520000
0!
b1100 #
1$
b1 %
b1111 &
1'
0+!
0M
b1100 O
1P
b1 R
1T
#525000
1!
b1100 &!
b1 '!
1+!
0,
0-
1/
1M
0Q
0U
1W
b1 b
b11 l
b1 t
#530000
0!
0$
0'
1(
0+!
0M
0P
0T
1X
#535000
1!
1+!
1,
1-
0/
1M
1Q
1U
0W
b0 l
#540000
0!
0(
0+!
b1110 G
0M
0X
#545000
1!
1+!
1M
#550000
0!
b0 #
1$
b1 %
b1111 &
1'
0+!
0M
b0 O
1P
1T
#555000
1!
b0 &!
1+!
0,
0-
1/
1M
0Q
0U
1W
1c
0d
1g
b11 l
1q
#560000
0!
0$
0'
1(
0+!
0M
0P
0T
1X
#565000
1!
b100 "!
b11000000 #!
1+!
1,
1-
0/
b100 4
15
b11000000 <
1M
1Q
1U
0W
0g
b0 l
0q
b1 u
b100 v
b11000000 w
b1 x
#570000
0!
0(
0+!
b1111 G
0M
0X
#575000
1!
1+!
01!
b11001010111111101111000000001101 2!
14!
05
15!
06
b11001010111111101111000000001101 7
19
1:
1;
1<!
1M
b10 u
#580000
0!
b10000 )
1*
0+!
0M
b10000 Y
1Z
#585000
1!
b0 (!
b10000 )!
b0 *!
1+!
00
b0 1
11!
13
04!
05!
16
09
0:
0;
0<!
1=
b11001010111111101111000000001101 ?
1B
1M
0[
b0 \
1^
b11001010111111101111000000001101 k
1p
b11 u
b11001010111111101111000000001101 z
#590000
0!
0*
1+
0+!
0M
0Z
1_
#595000
1!
1+!
0-!
0.!
10
10!
03
b11 7!
0=
b11000000 =!
0>
b11001010111111101111000000001101 >!
b110000 @!
0B
0C
1E
1F
1M
1[
0^
0p
b100 u
#600000
0!
0+
0+!
0M
0_
#605000
1!
1+!
1-!
1.!
00!
b0 7!
1>
1C
0E
0F
1M
b1 j
b101 u
b1 {
#610000
0!
b10000 )
1*
0+!
0M
1Z
#615000
1!
1+!
00
13
1M
0[
1^
1h
1p
b0 u
1~
#620000
0!
0*
1+
0+!
0M
0Z
1_
#625000
1!
1+!
10
03
1M
1[
0^
0c
1d
b1 f
0h
b0 j
0p
b0 {
0~
#630000
0!
0+
0+!
0M
0_
#635000
1!
1+!
1M
#640000
0!
b10000 )
1*
0+!
0M
1Z
#645000
1!
b1 (!
b1 *!
1+!
00
b1 1
13
1M
0[
b1 \
1^
1p
#650000
0!
0*
1+
0+!
0M
0Z
1_
#655000
1!
1+!
10
03
1M
1[
0^
0p
#660000
0!
0+
0+!
b10001 G
0M
0_
#665000
1!
1+!
1M
#670000
0!
b10100 )
1*
0+!
0M
b10100 Y
1Z
#675000
1!
b10100 )!
1+!
00
13
1M
0[
1^
1p
#680000
0!
0*
1+
0+!
0M
0Z
1_
#685000
1!
1+!
10
03
1M
1[
0^
0p
#690000
0!
0+
0+!
b10011 G
b1 I
0M
0_
#695000
1!
1+!
1M
#700000
0!
b100000 #
1$
b11011110101011011011111011101111 %
b1111 &
1'
0+!
0M
b100000 O
1P
b11011110101011011011111011101111 R
1T
#705000
1!
1+!
0,
0-
b10 .
1/
1M
0Q
0U
b10 V
1W
b11 l
#710000
0!
0$
0'
1(
0+!
0M
0P
0T
1X
#715000
1!
1+!
1,
1-
b0 .
0/
1M
1Q
1U
b0 V
0W
b0 l
#720000
0!
0(
0+!
b10100 G
0M
0X
#725000
1!
1+!
1M
#730000
0!
b100000 )
1*
0+!
0M
b100000 Y
1Z
#735000
1!
1+!
00
b0 1
b10 2
13
1M
0[
b0 \
b10 ]
1^
1p
#740000
0!
0*
1+
0+!
0M
0Z
1_
#745000
1!
1+!
10
b0 2
03
1M
1[
b0 ]
0^
0p
#750000
0!
0+
0+!
b10101 G
b0 I
0M
0_
#755000
1!
1+!
1M
#760000
0!
b100 #
1$
b111111110100 %
b1111 &
1'
0+!
0M
b100 O
1P
b111111110100 R
1T
#765000
1!
b100 &!
b111111110100 '!
1+!
0,
0-
1/
1M
0Q
0U
1W
b111111110100 `
b11 l
b111111110100 r
#770000
0!
0$
0'
1(
0+!
0M
0P
0T
1X
#775000
1!
1+!
1,
1-
0/
1M
1Q
1U
0W
b0 l
#780000
0!
0(
0+!
b10110 G
0M
0X
#785000
1!
1+!
1M
#790000
0!
b1000 #
1$
b1100000000 %
b1111 &
1'
0+!
0M
b1000 O
1P
b1100000000 R
1T
#795000
1!
b1000 &!
b1100000000 '!
1+!
0,
0-
1/
1M
0Q
0U
1W
b1100000000 a
b11 l
b1100000000 s
#800000
0!
0$
0'
1(
0+!
0M
0P
0T
1X
#805000
1!
1+!
1,
1-
0/
1M
1Q
1U
0W
b0 l
#810000
0!
0(
0+!
b10111 G
0M
0X
#815000
1!
1+!
1M
#820000
0!
b1100 #
1$
b100 %
b1111 &
1'
0+!
0M
b1100 O
1P
b100 R
1T
#825000
1!
b1100 &!
b100 '!
1+!
0,
0-
1/
1M
0Q
0U
1W
b100 b
b11 l
b100 t
#830000
0!
0$
0'
1(
0+!
0M
0P
0T
1X
#835000
1!
1+!
1,
1-
0/
1M
1Q
1U
0W
b0 l
#840000
0!
0(
0+!
b11000 G
0M
0X
#845000
1!
1+!
1M
#850000
0!
b0 #
1$
b1 %
b1111 &
1'
0+!
0M
b0 O
1P
b1 R
1T
#855000
1!
b0 &!
b1 '!
1+!
0,
0-
1/
1M
0Q
0U
1W
1c
0d
1g
b11 l
1q
#860000
0!
0$
0'
1(
0+!
0M
0P
0T
1X
#865000
1!
b111111110100 "!
b1100000000 #!
1+!
1,
1-
0/
b111111110100 4
15
b1100000000 <
1M
1Q
1U
0W
0g
b0 l
0q
b1 u
b111111110100 v
b1100000000 w
b100 x
#870000
0!
0(
0+!
b11001 G
0M
0X
#875000
1!
1+!
01!
b10101010101010100001000100010001 2!
14!
05
15!
06
b10101010101010100001000100010001 7
19
1:
1;
1<!
1M
b10 u
#880000
0!
b10000 )
1*
0+!
0M
b10000 Y
1Z
#885000
1!
b0 (!
b10000 )!
b0 *!
1+!
00
11!
13
04!
05!
16
09
0:
0;
0<!
1=
b10101010101010100001000100010001 ?
1B
1M
0[
1^
b10101010101010100001000100010001 k
1p
b11 u
b10101010101010100001000100010001 z
#890000
0!
0*
1+
0+!
0M
0Z
1_
#895000
1!
1+!
0-!
0.!
10
10!
03
b11 7!
0=
b1100000000 =!
0>
b10101010101010100001000100010001 >!
b11000000 @!
0B
0C
1E
1F
1M
1[
0^
0p
b100 u
#900000
0!
0+
0+!
0M
0_
#905000
1!
b111111111000 "!
b1100000100 #!
1+!
1-!
1.!
00!
b111111111000 4
15
b0 7!
b1100000100 <
1>
1C
0E
0F
1M
b1 j
b1 u
b1 y
b1 {
#910000
0!
b10000 )
1*
0+!
0M
1Z
#915000
1!
1+!
00
01!
b10111011101110110010001000100010 2!
13
14!
05
15!
06
b10111011101110110010001000100010 7
19
1:
1;
1<!
1M
0[
1^
1p
b10 u
#920000
0!
0*
1+
0+!
0M
0Z
1_
#925000
1!
1+!
10
11!
03
04!
05!
16
09
0:
0;
0<!
1=
b10111011101110110010001000100010 ?
1B
1M
1[
0^
b10111011101110110010001000100010 k
0p
b11 u
b10111011101110110010001000100010 z
#930000
0!
0+
0+!
0M
0_
#935000
1!
1+!
0-!
0.!
10!
b11 7!
0=
b1100000100 =!
0>
b10111011101110110010001000100010 >!
b11000001 @!
0B
0C
1E
1F
1M
b100 u
#940000
0!
b10000 )
1*
0+!
0M
1Z
#945000
1!
b111111111100 "!
b1100001000 #!
1+!
1-!
1.!
00
00!
13
b111111111100 4
15
b0 7!
b1100001000 <
1>
1C
0E
0F
1M
0[
1^
b10 j
1p
b1 u
b10 y
b10 {
#950000
0!
0*
1+
0+!
0M
0Z
1_
#955000
1!
1+!
10
01!
b11001100110011000011001100110011 2!
03
14!
05
15!
06
b11001100110011000011001100110011 7
19
1:
1;
1<!
1M
1[
0^
0p
b10 u
#960000
0!
0+
0+!
0M
0_
#965000
1!
1+!
11!
04!
05!
16
09
0:
0;
0<!
1=
b11001100110011000011001100110011 ?
1B
1M
b11001100110011000011001100110011 k
b11 u
b11001100110011000011001100110011 z
#970000
0!
b10000 )
1*
0+!
0M
1Z
#975000
1!
1+!
0-!
0.!
00
10!
13
b11 7!
0=
b1100001000 =!
0>
b11001100110011000011001100110011 >!
b11000010 @!
0B
0C
1E
1F
1M
0[
1^
1p
b100 u
#980000
0!
0*
1+
0+!
0M
0Z
1_
#985000
1!
b1000000000000 "!
b1100001100 #!
1+!
1-!
1.!
10
00!
03
b1000000000000 4
15
b0 7!
b1100001100 <
1>
1C
0E
0F
1M
1[
0^
b11 j
0p
b1 u
b11 y
b11 {
#990000
0!
0+
0+!
0M
0_
#995000
1!
1+!
01!
b0 2!
b10 3!
14!
05
15!
06
b0 7
b10 8
19
1:
1;
1<!
1M
b10 u
#1000000
0!
b10000 )
1*
0+!
0M
1Z
#1005000
1!
1+!
00
11!
13
b0 3!
04!
05!
16
b0 8
09
0:
0;
0<!
b0 ?
1M
0[
1^
b0 k
1p
b101 u
b0 z
1|
#1010000
0!
0*
1+
0+!
0M
0Z
1_
#1015000
1!
1!!
1+!
10
03
1M
1[
0^
1h
1i
0p
b0 u
1~
#1020000
0!
0+
0+!
0M
0_
#1025000
1!
0!!
b111111110100 "!
b1100000000 #!
1+!
b111111110100 4
b1100000000 <
1M
0c
1d
1e
b11 f
0h
0i
b0 j
b0 y
b0 {
0|
0~
#1030000
0!
b10000 )
1*
0+!
0M
1Z
#1035000
1!
b11 (!
b11 *!
1+!
00
b11 1
13
1M
0[
b11 \
1^
1p
#1040000
0!
0*
1+
0+!
0M
0Z
1_
#1045000
1!
1+!
10
03
1M
1[
0^
0p
#1050000
0!
0+
0+!
b11011 G
b11 J
0M
0_
#1055000
1!
1+!
1M
#1060000
0!
b10100 )
1*
0+!
0M
b10100 Y
1Z
#1065000
1!
b10100 )!
1+!
00
13
1M
0[
1^
1p
#1070000
0!
0*
1+
0+!
0M
0Z
1_
#1075000
1!
1+!
10
03
1M
1[
0^
0p
#1080000
0!
0+
0+!
b100000 G
b11 I
0M
0_
#1085000
1!
1+!
1M
#1090000
0!
b100 #
1$
b1000000000 %
b1111 &
1'
0+!
0M
b100 O
1P
b1000000000 R
1T
#1095000
1!
b100 &!
b1000000000 '!
1+!
0,
0-
1/
1M
0Q
0U
1W
b1000000000 `
b11 l
b1000000000 r
#1100000
0!
0$
0'
1(
0+!
0M
0P
0T
1X
#1105000
1!
1+!
1,
1-
0/
1M
1Q
1U
0W
b0 l
