logs/simple_dma_copy_nword_tb.vcd
$date
   Sat May  2 23:19:25 2026
$end
$version
  2022.2
$end
$timescale
  1ps
$end
$scope module simple_dma_copy_nword_tb $end
$var reg 1 ! aclk $end
$var reg 1 " aresetn $end
$var reg 1 # start_tb $end
$var reg 32 $ src_tb [31:0] $end
$var reg 32 % dst_tb [31:0] $end
$var reg 16 & len_tb [15:0] $end
$var wire 32 ' axi_araddr [31:0] $end
$var wire 1 ( axi_arvalid $end
$var wire 1 ) axi_arready $end
$var wire 32 * axi_rdata [31:0] $end
$var wire 2 + axi_rresp [1:0] $end
$var wire 1 , axi_rlast $end
$var wire 1 - axi_rvalid $end
$var wire 1 . axi_rready $end
$var wire 32 / axi_awaddr [31:0] $end
$var wire 1 0 axi_awvalid $end
$var wire 1 1 axi_awready $end
$var wire 32 2 axi_wdata [31:0] $end
$var wire 4 3 axi_wstrb [3:0] $end
$var wire 1 4 axi_wlast $end
$var wire 1 5 axi_wvalid $end
$var wire 1 6 axi_wready $end
$var wire 2 7 axi_bresp [1:0] $end
$var wire 1 8 axi_bvalid $end
$var wire 1 9 axi_bready $end
$var wire 32 : last_copied_data [31:0] $end
$var wire 16 ; copied_count [15:0] $end
$var wire 1 < done $end
$var wire 1 = error $end
$var reg 32 > pass_count [31:0] $end
$var reg 32 ? fail_count [31:0] $end
$scope module dut $end
$var wire 1 @ aclk $end
$var wire 1 A aresetn $end
$var wire 1 B start $end
$var wire 32 C src_addr [31:0] $end
$var wire 32 D dst_addr [31:0] $end
$var wire 16 E length_words [15:0] $end
$var wire 32 : last_copied_data [31:0] $end
$var wire 16 ; copied_count [15:0] $end
$var wire 1 < done $end
$var wire 1 = error $end
$var wire 32 ' araddr [31:0] $end
$var wire 1 ( arvalid $end
$var wire 1 ) arready $end
$var wire 32 * rdata [31:0] $end
$var wire 2 + rresp [1:0] $end
$var wire 1 , rlast $end
$var wire 1 - rvalid $end
$var wire 1 . rready $end
$var wire 32 / awaddr [31:0] $end
$var wire 1 0 awvalid $end
$var wire 1 1 awready $end
$var wire 32 2 wdata [31:0] $end
$var wire 4 3 wstrb [3:0] $end
$var wire 1 4 wlast $end
$var wire 1 5 wvalid $end
$var wire 1 6 wready $end
$var wire 2 7 bresp [1:0] $end
$var wire 1 8 bvalid $end
$var wire 1 9 bready $end
$var reg 3 F state [2:0] $end
$var reg 32 G src_lat [31:0] $end
$var reg 32 H dst_lat [31:0] $end
$var reg 16 I len_lat [15:0] $end
$var reg 16 J word_idx [15:0] $end
$var reg 32 K rdata_lat [31:0] $end
$var reg 16 L copied_count_r [15:0] $end
$var reg 1 M read_err $end
$var reg 1 N write_err $end
$var reg 1 O done_r $end
$var reg 1 P error_r $end
$var wire 32 Q cur_raddr [31:0] $end
$var wire 32 R cur_waddr [31:0] $end
$upscope $end
$scope module slave $end
$var wire 1 S aclk $end
$var wire 1 T aresetn $end
$var wire 32 / awaddr [31:0] $end
$var wire 1 0 awvalid $end
$var reg 1 U awready $end
$var wire 32 2 wdata [31:0] $end
$var wire 4 3 wstrb [3:0] $end
$var wire 1 4 wlast $end
$var wire 1 5 wvalid $end
$var reg 1 V wready $end
$var reg 2 W bresp [1:0] $end
$var reg 1 X bvalid $end
$var wire 1 9 bready $end
$var wire 32 ' araddr [31:0] $end
$var wire 1 ( arvalid $end
$var reg 1 Y arready $end
$var reg 32 Z rdata [31:0] $end
$var reg 2 [ rresp [1:0] $end
$var reg 1 \ rlast $end
$var reg 1 ] rvalid $end
$var wire 1 . rready $end
$var integer 32 ^ init_i [31:0] $end
$var reg 2 _ wstate [1:0] $end
$var reg 32 ` aw_latch [31:0] $end
$var reg 32 a wd_latch [31:0] $end
$var reg 4 b ws_latch [3:0] $end
$var integer 32 c i [31:0] $end
$var reg 1 d rstate $end
$scope function addr_in_range $end
$var reg 1 e addr_in_range $end
$var reg 32 f a [31:0] $end
$upscope $end
$scope task do_write $end
$var reg 32 g a [31:0] $end
$var reg 32 h d [31:0] $end
$var reg 4 i s [3:0] $end
$var integer 32 j idx [31:0] $end
$upscope $end
$upscope $end
$scope task run_dma $end
$var reg 32 k tsrc [31:0] $end
$var reg 32 l tdst [31:0] $end
$var reg 16 m tlen [15:0] $end
$var reg 32 n timeout [31:0] $end
$upscope $end
$scope task check_eq $end
$var reg 32 k got [31:0] $end
$var reg 32 l exp [31:0] $end
$var reg 32 o label $end
$upscope $end
$scope task check_eq16 $end
$var reg 16 p got [15:0] $end
$var reg 16 q exp [15:0] $end
$var reg 32 o label $end
$upscope $end
$scope task check_bit $end
$var reg 1 r got $end
$var reg 1 s exp $end
$var reg 32 o label $end
$upscope $end
$upscope $end
$enddefinitions $end
#0
$dumpvars
0!
0"
0#
b0 $
b0 %
b0 &
b0 '
0(
1)
b0 *
b0 +
0,
0-
0.
b0 /
00
11
b0 2
b1111 3
14
05
16
b0 7
08
09
b0 :
b0 ;
0<
0=
b0 >
b0 ?
0@
0A
0B
b0 C
b0 D
b0 E
b0 F
b0 G
b0 H
b0 I
b0 J
b0 K
b0 L
0M
0N
0O
0P
b0 Q
b0 R
0S
0T
1U
1V
b0 W
0X
1Y
b0 Z
b0 [
0\
0]
b10000000000 ^
b0 _
bx `
bx a
bx b
bx c
0d
0e
b0 f
bx g
bx h
bx i
bx j
b0 k
b0 l
b0 m
b0 n
b0 o
b0 p
b0 q
0r
0s
$end
#5000
1!
1@
1S
#10000
0!
0@
0S
#15000
1!
1@
1S
#20000
0!
0@
0S
#25000
1!
1@
1S
#30000
0!
0@
0S
#35000
1!
1@
1S
#40000
0!
0@
0S
#45000
1!
1@
1S
#50000
0!
0@
0S
#55000
1!
1@
1S
#60000
0!
0@
0S
#65000
1!
1@
1S
#70000
0!
0@
0S
#75000
1!
1"
1@
1A
1S
1T
#80000
0!
0@
0S
#85000
1!
1@
1S
#90000
0!
0@
0S
#95000
1!
1@
1S
#100000
0!
1#
b0 $
b1000000 %
b0 &
0@
1B
b1000000 D
0S
#105000
1!
b1000000 /
1@
b101 F
b1000000 H
b1000000 R
1S
#110000
0!
0#
0@
0B
0S
#115000
1!
1<
1@
b0 F
1O
1S
#120000
0!
0@
0S
#125000
1!
0<
b100 >
1@
0O
1S
#130000
0!
1#
b0 $
b1000000 %
b1 &
0@
1B
b1 E
0S
#135000
1!
1(
1@
b1 F
b1 I
1S
#140000
0!
0#
0@
0B
0S
#145000
1!
0(
0)
b11011110101011011011111011101111 *
1,
1-
1.
1@
b10 F
1S
0Y
b11011110101011011011111011101111 Z
1\
1]
1d
#150000
0!
0@
0S
#155000
1!
1)
0,
0-
0.
10
b11011110101011011011111011101111 2
15
b11011110101011011011111011101111 :
1@
b11 F
b11011110101011011011111011101111 K
1S
1Y
0\
0]
0d
#160000
0!
0@
0S
#165000
1!
00
01
05
06
18
19
1@
b100 F
1S
0U
0V
1X
b11 _
b1000000 g
b11011110101011011011111011101111 h
b1111 i
b10000 j
#170000
0!
0@
0S
#175000
1!
11
16
08
09
b1 ;
1@
b101 F
b1 L
1S
1U
1V
0X
b0 _
#180000
0!
0@
0S
#185000
1!
1<
1@
b0 F
1O
1S
#190000
0!
0@
0S
#195000
1!
b0 ;
0<
b1001 >
1@
b0 L
0O
1S
#200000
0!
1#
b0 $
b10000000 %
b100 &
0@
1B
b10000000 D
b100 E
0S
#205000
1!
1(
b10000000 /
1@
b1 F
b10000000 H
b100 I
b10000000 R
1S
#210000
0!
0#
0@
0B
0S
#215000
1!
0(
0)
1,
1-
1.
1@
b10 F
1S
0Y
1\
1]
1d
#220000
0!
0@
0S
#225000
1!
1)
0,
0-
0.
10
15
1@
b11 F
1S
1Y
0\
0]
0d
#230000
0!
0@
0S
#235000
1!
00
01
05
06
18
19
1@
b100 F
1S
0U
0V
1X
b11 _
b10000000 g
b100000 j
#240000
0!
0@
0S
#245000
1!
b100 '
1(
b10000100 /
11
16
08
09
b1 ;
1@
b1 F
b1 J
b1 L
b100 Q
b10000100 R
1S
1U
1V
0X
b0 _
#250000
0!
0@
0S
#255000
1!
0(
0)
b11001010111111101111000000001101 *
1,
1-
1.
1@
b10 F
1S
0Y
b11001010111111101111000000001101 Z
1\
1]
1d
#260000
0!
0@
0S
#265000
1!
1)
0,
0-
0.
10
b11001010111111101111000000001101 2
15
b11001010111111101111000000001101 :
1@
b11 F
b11001010111111101111000000001101 K
1S
1Y
0\
0]
0d
#270000
0!
0@
0S
#275000
1!
00
01
05
06
18
19
1@
b100 F
1S
0U
0V
1X
b11 _
b10000100 g
b11001010111111101111000000001101 h
b100001 j
#280000
0!
0@
0S
#285000
1!
b1000 '
1(
b10001000 /
11
16
08
09
b10 ;
1@
b1 F
b10 J
b10 L
b1000 Q
b10001000 R
1S
1U
1V
0X
b0 _
#290000
0!
0@
0S
#295000
1!
0(
0)
b10100101101001011010010110100101 *
1,
1-
1.
1@
b10 F
1S
0Y
b10100101101001011010010110100101 Z
1\
1]
1d
#300000
0!
0@
0S
#305000
1!
1)
0,
0-
0.
10
b10100101101001011010010110100101 2
15
b10100101101001011010010110100101 :
1@
b11 F
b10100101101001011010010110100101 K
1S
1Y
0\
0]
0d
#310000
0!
0@
0S
#315000
1!
00
01
05
06
18
19
1@
b100 F
1S
0U
0V
1X
b11 _
b10001000 g
b10100101101001011010010110100101 h
b100010 j
#320000
0!
0@
0S
#325000
1!
b1100 '
1(
b10001100 /
11
16
08
09
b11 ;
1@
b1 F
b11 J
b11 L
b1100 Q
b10001100 R
1S
1U
1V
0X
b0 _
#330000
0!
0@
0S
#335000
1!
0(
0)
b10010001101000101011001111000 *
1,
1-
1.
1@
b10 F
1S
0Y
b10010001101000101011001111000 Z
1\
1]
1d
#340000
0!
0@
0S
#345000
1!
1)
0,
0-
0.
10
b10010001101000101011001111000 2
15
b10010001101000101011001111000 :
1@
b11 F
b10010001101000101011001111000 K
1S
1Y
0\
0]
0d
#350000
0!
0@
0S
#355000
1!
00
01
05
06
18
19
1@
b100 F
1S
0U
0V
1X
b11 _
b10001100 g
b10010001101000101011001111000 h
b100011 j
#360000
0!
0@
0S
#365000
1!
11
16
08
09
b100 ;
1@
b101 F
b100 L
1S
1U
1V
0X
b0 _
#370000
0!
0@
0S
#375000
1!
1<
1@
b0 F
1O
1S
#380000
0!
0@
0S
#385000
1!
b0 '
b10000000 /
b0 ;
0<
b10000 >
1@
b0 J
b0 L
0O
b0 Q
b10000000 R
1S
#390000
0!
1#
b111111110100 $
b100000000 %
b100 &
0@
1B
b111111110100 C
b100000000 D
0S
#395000
1!
b111111110100 '
1(
b100000000 /
1@
b1 F
b111111110100 G
b100000000 H
b111111110100 Q
b100000000 R
1S
#400000
0!
0#
0@
0B
0S
#405000
1!
0(
0)
b10101010101010100001000100010001 *
1,
1-
1.
1@
b10 F
1S
0Y
b10101010101010100001000100010001 Z
1\
1]
1d
#410000
0!
0@
0S
#415000
1!
1)
0,
0-
0.
10
b10101010101010100001000100010001 2
15
b10101010101010100001000100010001 :
1@
b11 F
b10101010101010100001000100010001 K
1S
1Y
0\
0]
0d
#420000
0!
0@
0S
#425000
1!
00
01
05
06
18
19
1@
b100 F
1S
0U
0V
1X
b11 _
b100000000 g
b10101010101010100001000100010001 h
b1000000 j
#430000
0!
0@
0S
#435000
1!
b111111111000 '
1(
b100000100 /
11
16
08
09
b1 ;
1@
b1 F
b1 J
b1 L
b111111111000 Q
b100000100 R
1S
1U
1V
0X
b0 _
#440000
0!
0@
0S
#445000
1!
0(
0)
b10111011101110110010001000100010 *
1,
1-
1.
1@
b10 F
1S
0Y
b10111011101110110010001000100010 Z
1\
1]
1d
#450000
0!
0@
0S
#455000
1!
1)
0,
0-
0.
10
b10111011101110110010001000100010 2
15
b10111011101110110010001000100010 :
1@
b11 F
b10111011101110110010001000100010 K
1S
1Y
0\
0]
0d
#460000
0!
0@
0S
#465000
1!
00
01
05
06
18
19
1@
b100 F
1S
0U
0V
1X
b11 _
b100000100 g
b10111011101110110010001000100010 h
b1000001 j
#470000
0!
0@
0S
#475000
1!
b111111111100 '
1(
b100001000 /
11
16
08
09
b10 ;
1@
b1 F
b10 J
b10 L
b111111111100 Q
b100001000 R
1S
1U
1V
0X
b0 _
#480000
0!
0@
0S
#485000
1!
0(
0)
b11001100110011000011001100110011 *
1,
1-
1.
1@
b10 F
1S
0Y
b11001100110011000011001100110011 Z
1\
1]
1d
#490000
0!
0@
0S
#495000
1!
1)
0,
0-
0.
10
b11001100110011000011001100110011 2
15
b11001100110011000011001100110011 :
1@
b11 F
b11001100110011000011001100110011 K
1S
1Y
0\
0]
0d
#500000
0!
0@
0S
#505000
1!
00
01
05
06
18
19
1@
b100 F
1S
0U
0V
1X
b11 _
b100001000 g
b11001100110011000011001100110011 h
b1000010 j
#510000
0!
0@
0S
#515000
1!
b1000000000000 '
1(
b100001100 /
11
16
08
09
b11 ;
1@
b1 F
b11 J
b11 L
b1000000000000 Q
b100001100 R
1S
1U
1V
0X
b0 _
#520000
0!
0@
0S
#525000
1!
0(
0)
b0 *
b10 +
1,
1-
1.
1@
b10 F
1S
0Y
b0 Z
b10 [
1\
1]
1d
#530000
0!
0@
0S
#535000
1!
1)
b0 +
0,
0-
0.
b0 2
b0 :
1@
b101 F
b0 K
1M
1S
1Y
b0 [
0\
0]
0d
#540000
0!
0@
0S
#545000
1!
1<
1=
1@
b0 F
1O
1P
1S
#550000
0!
0@
0S
#555000
1!
b111111110100 '
b100000000 /
b0 ;
0<
0=
b10111 >
1@
b0 J
b0 L
0M
0O
0P
b111111110100 Q
b100000000 R
1S
#560000
0!
1#
b1000000000 $
b111111110100 %
b100 &
0@
1B
b1000000000 C
b111111110100 D
0S
#565000
1!
b1000000000 '
1(
b111111110100 /
1@
b1 F
b1000000000 G
b111111110100 H
b1000000000 Q
b111111110100 R
1S
#570000
0!
0#
0@
0B
0S
#575000
1!
0(
0)
b10001000100011010101010101010 *
1,
1-
1.
1@
b10 F
1S
0Y
b10001000100011010101010101010 Z
1\
1]
1d
#580000
0!
0@
0S
#585000
1!
1)
0,
0-
0.
10
b10001000100011010101010101010 2
15
b10001000100011010101010101010 :
1@
b11 F
b10001000100011010101010101010 K
1S
1Y
0\
0]
0d
#590000
0!
0@
0S
#595000
1!
00
01
05
06
18
19
1@
b100 F
1S
0U
0V
1X
b11 _
b111111110100 g
b10001000100011010101010101010 h
b1111111101 j
#600000
0!
0@
0S
#605000
1!
b1000000100 '
1(
b111111111000 /
11
16
08
09
b1 ;
1@
b1 F
b1 J
b1 L
b1000000100 Q
b111111111000 R
1S
1U
1V
0X
b0 _
#610000
0!
0@
0S
#615000
1!
0(
0)
b100010001000101011101110111011 *
1,
1-
1.
1@
b10 F
1S
0Y
b100010001000101011101110111011 Z
1\
1]
1d
#620000
0!
0@
0S
#625000
1!
1)
0,
0-
0.
10
b100010001000101011101110111011 2
15
b100010001000101011101110111011 :
1@
b11 F
b100010001000101011101110111011 K
1S
1Y
0\
0]
0d
#630000
0!
0@
0S
#635000
1!
00
01
05
06
18
19
1@
b100 F
1S
0U
0V
1X
b11 _
b111111111000 g
b100010001000101011101110111011 h
b1111111110 j
#640000
0!
0@
0S
#645000
1!
b1000001000 '
1(
b111111111100 /
11
16
08
09
b10 ;
1@
b1 F
b10 J
b10 L
b1000001000 Q
b111111111100 R
1S
1U
1V
0X
b0 _
#650000
0!
0@
0S
#655000
1!
0(
0)
b110011001100111100110011001100 *
1,
1-
1.
1@
b10 F
1S
0Y
b110011001100111100110011001100 Z
1\
1]
1d
#660000
0!
0@
0S
#665000
1!
1)
0,
0-
0.
10
b110011001100111100110011001100 2
15
b110011001100111100110011001100 :
1@
b11 F
b110011001100111100110011001100 K
1S
1Y
0\
0]
0d
#670000
0!
0@
0S
#675000
1!
00
01
05
06
18
19
1@
b100 F
1S
0U
0V
1X
b11 _
b111111111100 g
b110011001100111100110011001100 h
b1111111111 j
#680000
0!
0@
0S
#685000
1!
b1000001100 '
1(
b1000000000000 /
11
16
08
09
b11 ;
1@
b1 F
b11 J
b11 L
b1000001100 Q
b1000000000000 R
1S
1U
1V
0X
b0 _
#690000
0!
0@
0S
#695000
1!
0(
0)
b1000100010001001101110111011101 *
1,
1-
1.
1@
b10 F
1S
0Y
b1000100010001001101110111011101 Z
1\
1]
1d
#700000
0!
0@
0S
#705000
1!
1)
0,
0-
0.
10
b1000100010001001101110111011101 2
15
b1000100010001001101110111011101 :
1@
b11 F
b1000100010001001101110111011101 K
1S
1Y
0\
0]
0d
#710000
0!
0@
0S
#715000
1!
00
01
05
06
b10 7
18
19
1@
b100 F
1S
0U
0V
b10 W
1X
b11 _
#720000
0!
0@
0S
#725000
1!
11
16
b0 7
08
09
1@
b101 F
1N
1S
1U
1V
b0 W
0X
b0 _
#730000
0!
0@
0S
#735000
1!
1<
1=
1@
b0 F
1O
1P
1S
#740000
0!
0@
0S
#745000
1!
b11111 >
1@
1S
